stateId	stateName	isoStateCode	stateCode	countryId	active
-1	unknown			-1	0
1	Saratov			120	1
2	Delhi		IN-DL	27	1
3	Sălaj		RO-SJ	123	1
4	Kiev			56	1
5	Northumberland		GB-NBL	23	1
6	Upper Austria			103	1
7	Canterbury		NZ-CAN	32	1
8	Podkarpackie		PL-PK	69	1
9	Pomerania			69	1
10	Minas Gerais		BR-MG	143	1
11	Odessa Region			56	1
12	Hessen		DE-HE	159	1
13	Pays de la Loire			186	1
14	Jilin		CN-22	12	1
15	Lisbon Region			64	1
16	Basilicata		IT-77	196	1
17	Georgia		US-GA	8	1
18	Kurzeme			11	1
19	Mubarak Al-Kabeer			26	1
20	Northern Cape		ZA-NC	157	1
21	Misiones		AR-N	154	1
22	Somerset		GB-SOM	23	1
23	Jalisco		MX-JAL	166	1
24	Northern Territory		AU-NT	118	1
25	Ida-Virumaa		EE-44	85	1
26	Banskobystrický kraj		SK-BC	108	1
27	Brăila		RO-BR	123	1
28	Cornwall		GB-CON	23	1
29	Texas		US-TX	8	1
30	Hokkaido			66	1
31	Santiago de Cuba		CU-13	-1	1
32	Limon		CR-L	104	1
33	Salta		AR-A	154	1
34	Idaho		US-ID	8	1
35	Bavaria			159	1
36	Hunan		CN-43	12	1
37	Shanghai Province			12	1
38	Kildare County			86	1
39	West-Flanders			93	1
40	Friuli Venezia Giulia			196	1
41	Veszprem		HU-VE	129	1
42	Rhineland-Palatinate			159	1
43	Norte Region			64	1
44	San Luis Potosí		MX-SLP	166	1
45	Canary Islands			28	1
46	Wallonian Brabantine			93	1
47	Tyrone County			23	1
48	Lorraine		FR-M	186	1
49	Hedmark		NO-04	134	1
50	Asturias		ES-O	28	1
51	Valle d'Aosta		IT-23	196	1
52	Hainaut		BE-WHT	93	1
53	Changhua		TW-CHA	15	1
54	Timiş		RO-TM	123	1
55	Andalucía		ES-AN	28	1
56	Panevėžys county			35	1
57	Brod-Posavina County			163	1
58	South Carolina		US-SC	8	1
59	Kaunas county			35	1
60	Dhofar			180	1
61	Kerry		IE-KY	86	1
62	Melaka		MY-04	135	1
63	South Bohemia			151	1
64	Pardubice Region			151	1
65	Belgium Luxembourg			93	1
66	Espírito Santo		BR-ES	143	1
67	Extremadura		ES-EX	28	1
68	Makkah		SA-02	89	1
69	East Sussex		GB-ESX	23	1
70	Arunachal Pradesh		IN-AR	27	1
71	Shizuoka			66	1
72	Lancashire		GB-LAN	23	1
73	Vestfold		NO-07	134	1
74	Champagne - Ardenne			186	1
75	Friesland		NL-FR	65	1
76	Ionian Islands			9	1
77	Johor		MY-01	135	1
78	Kilkenny County			86	1
79	Rutland		GB-RUT	23	1
80	Burgas		BG-02	24	1
81	Vâlcea		RO-VL	123	1
82	Henan		CN-41	12	1
83	Central Anatolia Region			132	1
84	Clervaux			45	1
85	Delaware		US-DE	8	1
86	South Dakota		US-SD	8	1
87	Ad Dhahirah			180	1
88	Phuket		TH-83	101	1
89	West Sussex		GB-WSX	23	1
90	Vastmanland			53	1
91	Alentejo			64	1
92	Riyadh Province			89	1
93	Sergipe		BR-SE	143	1
94	Carlsbad			151	1
95	Central Serbia			82	1
96	Šiauliai county			35	1
97	Tawzar			59	1
98	Sogn og Fjordane		NO-14	134	1
99	West Virginia		US-WV	8	1
100	South Governorate			99	1
101	Ajman		AE-AJ	22	1
102	Marijampolė county			35	1
103	Perthshire			23	1
104	Östergötland			53	1
105	Zacatecas		MX-ZAC	166	1
106	South Australia		AU-SA	118	1
107	Ranong		TH-85	101	1
108	Salzburg		AT-5	103	1
109	Ibaraki		JP-08	66	1
110	Sør-Trøndelag		NO-16	134	1
111	Hawalli		KW-HA	26	1
112	Pernambuco		BR-PE	143	1
113	Varna		BG-03	24	1
114	Noord-Holland		NL-NH	65	1
115	Meghalaya		IN-ML	27	1
116	Western Finland			50	1
117	Surat Thani		TH-84	101	1
118	Galicia		ES-GA	28	1
119	Poitou-Charentes		FR-T	186	1
120	Gelderland		NL-GE	65	1
121	Vrancea		RO-VN	123	1
122	Limburg		BE-VLI	93	1
123	Yunnan		CN-53	12	1
124	Jammu & Kashmir			27	1
125	Australian Capital Territory		AU-ACT	118	1
126	Alytus county			35	1
127	Norfolk		GB-NFK	23	1
128	Bío Bío			182	1
129	Pennsylvania		US-PA	8	1
130	Querétaro		MX-QUE	166	1
131	Roscommon County			86	1
132	Madeira Islands			64	1
133	Mykolayiv			56	1
134	Hainan		CN-46	12	1
135	Vinnytsya			56	1
136	Black Sea Region Turkey			132	1
137	Guanacaste		CR-G	104	1
138	Opolskie		PL-OP	69	1
139	Riga		LV-RIX	11	1
140	Worcestershire		GB-WOR	23	1
141	Berne			57	1
142	Piedmont			196	1
143	New York State			8	1
144	Tasman			32	1
145	Montevideo		UY-MO	51	1
146	Hyogo			66	1
147	North District Israel			31	1
148	Alsace		FR-A	186	1
149	Jiangxi		CN-36	12	1
150	Nord		FR-59	186	1
151	Westmeath		IE-WH	86	1
152	Aomori		JP-02	66	1
153	Brussels Region			93	1
154	Chhattisgarh		IN-CT	27	1
155	Tierra del Fuego		AR-V	154	1
156	Al Buraimi			180	1
157	Hiiumaa		EE-39	85	1
158	Massachusetts		US-MA	8	1
159	Kelantan		MY-03	135	1
160	Hertfordshire		GB-HRT	23	1
161	Appenzell Ausserrhoden			57	1
162	Yamanashi			66	1
163	Bihar		IN-BR	27	1
164	Zala		HU-ZA	129	1
165	Canillo		AD-02	168	1
166	Centre		FR-F	186	1
167	Buzău		RO-BZ	123	1
168	Thrace			9	1
169	Saint Andrew Parish			171	1
170	Free State		ZA-FS	157	1
171	Vaud			57	1
172	Istria			163	1
173	Nagano		JP-20	66	1
174	Dnipropetrovsk			56	1
175	Hradec Kralove		CZ-521	151	1
176	Appenzell Innerrhoden			57	1
177	Franche-Comté		FR-I	186	1
178	Galapagos		EC-W	96	1
179	Lviv			56	1
180	Campania		IT-72	196	1
181	Carlow County			86	1
182	Merseyside			23	1
183	Novosibirsk			120	1
184	Nordjylland			112	1
185	Osječko-baranjska županija		HR-14	163	1
186	Niigata		JP-15	66	1
187	Kharkiv			56	1
188	Tungurahua		EC-T	96	1
189	Cusco			30	1
190	Podravje			34	1
191	Southland		NZ-STL	32	1
192	Community of Madrid			28	1
193	Nevada		US-NV	8	1
194	Jharkhand		IN-JH	27	1
195	Amman Governorate			72	1
196	Baranya		HU-BA	129	1
197	Utrecht		NL-UT	65	1
198	Sardinia			196	1
199	Hampshire		GB-HAM	23	1
200	Limerick County			86	1
201	Veliko Tarnovo		BG-04	24	1
202	Distrito Federal		BR-DF	143	1
203	Overijssel		NL-OV	65	1
204	Lubuskie		PL-LB	69	1
205	Saaremaa		EE-74	85	1
206	Koprivnica-Križevci County			163	1
207	Rhône-Alps			186	1
208	Glarus			57	1
209	Zagreb County			163	1
210	Devon		GB-DEV	23	1
211	Cheshire		GB-CHS	23	1
212	Isla de la Juventud		CU-99	-1	1
213	Lovech		BG-11	24	1
214	Borders			23	1
215	Požega-Slavonia County			163	1
216	Lubelskie		PL-LU	69	1
217	Saga		JP-41	66	1
218	North Iceland			94	1
219	Chiapas		MX-CHP	166	1
220	Kagawa		JP-37	66	1
221	Sisak-Moslavina County			163	1
222	Pilsen			151	1
223	Zemgale			11	1
224	Chiang Mai Province			101	1
225	Greater Manchester			23	1
226	Navarre			28	1
227	Greater London			23	1
228	Olomouc Region			151	1
229	Hawke's Bay			32	1
230	Powys		GB-POW	23	1
231	Centro Region			64	1
232	Colorado		US-CO	8	1
233	Vidin		BG-05	24	1
234	Laois		IE-LS	86	1
235	Negeri Sembilan		MY-05	135	1
236	KwaZulu-Natal		ZA-NL	157	1
237	Tocantins		BR-TO	143	1
238	Constanţa		RO-CT	123	1
239	Halland			53	1
240	Songkhla		TH-90	101	1
241	Leningrad Region			120	1
242	New Brunswick		CA-NB	164	1
243	Fort-de-France			145	1
244	Marlborough			32	1
245	Valparaíso		CL-VS	182	1
246	South Iceland			94	1
247	Otago		NZ-OTA	32	1
248	Flevoland		NL-FL	65	1
249	California		US-CA	8	1
250	Nayarit		MX-NAY	166	1
251	Central Scotland			23	1
252	Rio Grande do Norte		BR-RN	143	1
253	Fife		GB-FIF	23	1
254	Gabrovo		BG-07	24	1
255	Sancti Spíritus		CU-07	-1	1
256	Guangdong		CN-44	12	1
257	Aquitaine		FR-B	186	1
258	Meath		IE-MH	86	1
259	Surrey		GB-SRY	23	1
260	Sligo County			86	1
261	Uttarakhand			27	1
262	Al Sharqiyah			180	1
263	Calabria		IT-78	196	1
264	Warmia-Masuria			69	1
265	North Rhine-Westphalia			159	1
266	Entre Ríos		AR-E	154	1
267	Bistriţa-Năsăud		RO-BN	123	1
268	Guayas		EC-G	96	1
269	South Eastern Anatolia Region			132	1
270	Paphos			175	1
271	Dubrovnik-Neretva County			163	1
272	Daegu Metropolitan City			48	0
273	Fejer		HU-FE	129	1
274	Donetsk Region			56	1
275	Razgrad		BG-17	24	1
276	Norrbotten			53	1
277	Kansas		US-KS	8	1
278	Indiana		US-IN	8	1
279	Khmelnytskyy			56	1
280	Fukushima			66	1
281	Uppsala county			53	1
282	Dolj		RO-DJ	123	1
283	Mureş		RO-MS	123	1
284	North West			157	1
285	Cairo Governate			172	1
286	Connecticut		US-CT	8	1
287	Tamil Nadu		IN-TN	27	1
288	Southern Finland			50	1
289	Auvergne		FR-C	186	1
290	Tennessee		US-TN	8	1
291	Võrumaa		EE-86	85	1
292	Kronoberg			53	1
293	Puerto Plata		DO-18	195	1
294	Western Cape		ZA-WC	157	1
295	Rivne			56	1
296	Tottori		JP-31	66	1
297	Bihor		RO-BH	123	1
298	Trenčiansky kraj		SK-TC	108	1
299	Quebec		CA-QC	164	1
300	Hovedstaden			112	1
301	Utah		US-UT	8	1
302	Kerala		IN-KL	27	1
303	Ticino			57	1
304	Oregon		US-OR	8	1
305	Chumphon		TH-86	101	1
306	Irkutsk			120	1
307	Perak		MY-08	135	1
308	Alabama		US-AL	8	1
309	Tatarstan			120	1
310	Vest-Agder		NO-10	134	1
311	Santiago del Estero		AR-G	154	1
312	Liaoning		CN-21	12	1
313	Castilla-La Mancha		ES-CM	28	1
314	Quintana Roo		MX-ROO	166	1
315	Bangkok Province			101	1
316	Mato Grosso do Sul		BR-MS	143	1
317	Arequipa Province			30	1
318	Oslo County			134	1
319	Iwate		JP-03	66	1
320	Rostov			120	1
321	Cambridgeshire		GB-CAM	23	1
322	Camagüey		CU-09	-1	1
323	Saskatchewan		CA-SK	164	1
324	Northwest Territories		CA-NT	164	1
325	Kaliningrad region			120	1
326	Troms		NO-19	134	1
327	Beirut Governorate			99	1
328	Colima		MX-COL	166	1
329	Incheon Metropolitan City			48	0
330	Yamagata		JP-06	66	1
331	Mendoza		AR-M	154	1
332	Saxony			159	1
333	Nottinghamshire		GB-NTT	23	1
334	Midi-Pyrénées		FR-N	186	1
335	Lothian			23	1
336	Zaporizhzhya			56	1
337	Baja California			166	1
338	Primorsko-Goranska županija		HR-08	163	1
339	Central Greece			9	1
340	Clwyd			23	1
341	Fujairah			22	1
342	Al Qassim			89	1
343	Lombardy			196	1
344	Wyoming		US-WY	8	1
345	Madre de Dios		PE-MDD	30	1
346	Tianjin Province			12	1
347	Gloucestershire		GB-GLS	23	1
348	Antwerpen Province			93	1
349	Uttar Pradesh		IN-UP	27	1
350	Tripura		IN-TR	27	1
351	Gujarat		IN-GJ	27	1
352	Neamţ		RO-NT	123	1
353	Pärnumaa		EE-67	85	1
354	Clare		IE-CE	86	1
355	Baja California Sur		MX-BCS	166	1
356	Esch-sur-Alzette			45	1
357	Dolenjska (Lower Carniola)			34	1
358	Kanchanaburi Province			101	1
359	Liberec Region			151	1
360	Grande-Terre			60	1
361	Khao Sok			101	1
362	Mehedinti		RO-MH	123	1
363	Visayas			38	1
364	Dubai Emirate			22	1
365	Shimane			66	1
366	North Governorate 			99	1
367	Busan Metropolitan City			48	0
368	Cienfuegos		CU-06	-1	1
369	Mediterranean Region Turkey			132	1
370	Macedonia			9	1
371	Solothurn			57	1
372	Warwickshire		GB-WAR	23	1
373	Gyeongsangnam-do			48	1
374	Alaska		US-AK	8	1
375	Abu Dhabi Emirate			22	1
376	Jönköping county			53	1
377	Madaba Governorate			72	1
378	Sonora		MX-SON	166	1
379	Styria			103	1
380	Shanxi		CN-14	12	1
381	Tuscany			196	1
382	Umbria		IT-55	196	1
383	Virginia		US-VA	8	1
384	Antrim County			23	1
385	Cavan County			86	1
386	Saarland		DE-SL	159	1
387	Galaţi		RO-GL	123	1
388	Ilfov		RO-IF	123	1
389	Formosa		AR-P	154	1
390	Harghita		RO-HR	123	1
391	Khon Kaen Province			101	1
392	Lanarkshire			23	1
393	Taoyuan		TW-TAO	15	1
394	Villa Clara		CU-05	-1	1
395	Østfold		NO-01	134	1
396	Vukovar-Syrmia County			163	1
397	Reykjanes			94	1
398	Basque Country			28	1
399	Tibet			12	1
400	Tipperary County			86	1
401	Monaghan County			86	1
402	Center District Israel			31	1
403	Limassol			175	1
404	Klaipeda county			35	1
405	La Massana		AD-04	168	1
406	Inner Mongolia			12	1
407	Savinjska			34	1
408	Aichi			66	1
409	Liege		BE-WLG	93	1
410	Pazardzhik		BG-13	24	1
411	Offaly		IE-OY	86	1
412	Ras Al Khaimah			22	1
413	Shaanxi		CN-61	12	1
414	Borsod-Abauj-Zemplen		HU-BZ	129	1
415	Saint Barthélemy			60	1
416	Nakhon Si Thammarat		TH-80	101	1
417	Møre og Romsdal		NO-15	134	1
418	Madhya Pradesh		IN-MP	27	1
419	Lääne-Virumaa		EE-59	85	1
420	Pará		BR-PA	143	1
421	Washington State			8	1
422	Victoria		AU-VIC	118	1
423	District of Columbia		US-DC	8	1
424	Arizona		US-AZ	8	1
425	Eastern Finland			50	1
426	Ternopil			56	1
427	Ohio		US-OH	8	1
428	Terengganu		MY-11	135	1
429	Aswan		EG-ASN	172	1
430	Aguascalientes		MX-AGU	166	1
431	Nicosia			175	1
432	Diekirch		LU-D	45	1
433	Kanagawa		JP-14	66	1
434	Castries		LC-02	137	1
435	Podlaskie		PL-PD	69	1
436	Fribourg			57	1
437	Kent		GB-KEN	23	1
438	Pomurje			34	1
439	North Yorkshire		GB-NYK	23	1
440	Manitoba		CA-MB	164	1
441	Lapland Finland			50	1
442	Fukuoka			66	1
443	Karnataka		IN-KA	27	1
444	West Pomerania			69	1
445	Haskovo		BG-26	24	1
446	Ishikawa			66	1
447	Sibiu County			123	1
448	Sao Paulo State			143	1
449	Tayside			23	1
450	Rhode Island		US-RI	8	1
451	Kalmar county			53	1
452	Isle of Ely			23	1
453	Dobrich		BG-08	24	1
454	Arkansas		US-AR	8	1
455	Goa		IN-GA	27	1
456	Ayrshire			23	1
457	West Iceland			94	1
458	Santa Fe		AR-S	154	1
459	Manipur		IN-MN	27	1
460	Stockholm county			53	1
461	La Habana		CU-02	-1	1
462	Capital Region			94	1
463	Nord-Trøndelag		NO-17	134	1
464	Usti nad Labem		CZ-427	151	1
465	Utena county			35	1
466	Paramaribo		SR-PM	121	1
467	Orebro County			53	1
468	Suffolk		GB-SFK	23	1
469	Lucerne			57	1
470	Guanajuato		MX-GUA	166	1
471	Luzon			38	1
472	Shropshire		GB-SHR	23	1
473	State of Puebla			166	1
474	Alagoas		BR-AL	143	1
475	Põlvamaa		EE-65	85	1
476	Volyn			56	1
477	Wiltz			45	1
478	Tasmania		AU-TAS	118	1
479	Moscow region			120	1
480	Jämtland			53	1
481	Northamptonshire		GB-NTH	23	1
482	Azores			64	1
483	Flemisch Brabantine			93	1
484	Dâmboviţa		RO-DB	123	1
485	Giza Governorate			172	1
486	Chernihiv			56	1
487	New South Wales		AU-NSW	118	1
488	Nova Scotia		CA-NS	164	1
489	Saint George Parish			171	1
490	Miyagi		JP-04	66	1
491	Krasnodar			120	1
492	City of Bristol			23	1
493	Arad		RO-AR	123	1
494	Västernorrland			53	1
495	Krapina-Zagorje County			163	1
496	Nabatiye		LB-NA	99	1
497	Coquimbo		CL-CO	182	1
498	Al Madinah		SA-03	89	1
499	Poltava			56	1
500	Louth County			86	1
501	North Dakota		US-ND	8	1
502	East-Flanders			93	1
503	Kyoto			66	1
504	Vorarlberg		AT-8	103	1
505	Buskerud		NO-06	134	1
506	Prachuap Khiri Khan		TH-77	101	1
507	Tlaxcala		MX-TLA	166	1
508	Los Lagos		CL-LL	182	1
509	Swietokrzyskie		PL-SK	69	1
510	Muscat			180	1
511	Nuevo León		MX-NLE	166	1
512	Perlis		MY-09	135	1
513	Viljandimaa		EE-84	85	1
514	Northern Governorate			187	1
515	Northland		NZ-NTL	32	1
516	Carinthia			103	1
517	Gotland			53	1
518	Leicestershire		GB-LEC	23	1
519	West Midlands			23	1
520	Prague Region			151	1
521	Cluj		RO-CJ	123	1
522	Sabah		MY-12	135	1
523	Akershus		NO-02	134	1
524	Osrednjeslovenska			34	1
525	Gifu			66	1
526	Mecklenburg-Pomerania			159	1
527	Dublin County			86	1
528	Järvamaa		EE-51	85	1
529	Larnaca			175	1
530	Sofia		BG-23	24	1
531	Michoacan		MX-MIC	166	1
532	Silistra		BG-19	24	1
533	Le Marin			145	1
534	Žilinský kraj		SK-ZI	108	1
535	Neuquén		AR-Q	154	1
536	Telemark		NO-08	134	1
537	Al Wusta		OM-WU	180	1
538	Rajasthan		IN-RJ	27	1
539	Veracruz		MX-VER	166	1
540	Upper Normandy			186	1
541	Goiás		BR-GO	143	1
542	San José		CR-SJ	104	1
543	Nord-Pas-de-Calais		FR-O	186	1
544	Vianden			45	1
545	Vientiane		LA-VI	74	1
546	Bjelovar-Bilogora County			163	1
547	Alajuela		CR-A	104	1
548	Finnmark		NO-20	134	1
549	Rio de Janeiro State			143	1
550	Mayo		IE-MO	86	1
551	Wexford County			86	1
552	Gangwon-Do			48	1
553	Central Bohemia			151	1
554	Corrientes		AR-W	154	1
555	Sliven		BG-20	24	1
556	Ruse		BG-18	24	1
557	Basse-Terre			60	1
558	Međimurje County			163	1
559	Region Sjælland			112	1
560	Campeche		MX-CAM	166	1
561	Tucumán		AR-T	154	1
562	Aqaba Governorate			72	1
563	Sousse		TN-51	59	1
564	Chiba			66	1
565	Famagusta			175	1
566	Kirovohrad			56	1
567	Brittany			186	1
568	Echternach			45	1
569	Chon Buri		TH-20	101	1
570	Sicily			196	1
571	Minnesota		US-MN	8	1
572	Oppland		NO-05	134	1
573	Limburg		NL-LI	65	1
574	Gwent			23	1
575	Cherkasy			56	1
576	Tulcea		RO-TL	123	1
577	Nizhny Novgorod			120	1
578	Isle of Lewis			23	1
579	Dyfed			23	1
580	Jiangsu		CN-32	12	1
581	Alba		RO-AB	123	1
582	Ad Dakhiliyah		OM-DA	180	1
583	Sharjah Emirate			22	1
584	Catalonia			28	1
585	Herefordshire			23	1
586	Kherson			56	1
587	Lower Normandy			186	1
588	Roraima		BR-RR	143	1
589	Mount Lebanon			99	1
590	Maryland		US-MD	8	1
591	Hebei		CN-13	12	1
592	Aust-Agder		NO-09	134	1
593	Tokushima			66	1
594	Huntingdonshire			23	1
595	Himachal Pradesh		IN-HP	27	1
596	Veneto		IT-34	196	1
597	Chelyabinsk			120	1
598	Qinghai		CN-63	12	1
599	Rogaland		NO-11	134	1
600	Cumberland			23	1
601	Harjumaa		EE-37	85	1
602	Westland District			32	1
603	Acre		BR-AC	143	1
604	Parana		BR-PR	143	1
605	West Yorkshire			23	1
606	Chaco		AR-H	154	1
607	Aragon			28	1
608	Saxony-Anhalt			159	1
609	Crete			9	1
610	Haryana		IN-HR	27	1
611	Nidwalden			57	1
612	Trat		TH-23	101	1
613	Asir			89	1
614	Armagh County			23	1
615	Dorset		GB-DOR	23	1
616	Bremen		DE-HB	159	1
617	Greater Poland			69	1
618	Selangor		MY-10	135	1
619	Obwalden			57	1
620	Heilongjiang		CN-23	12	1
621	Zlin Region			151	1
622	Limpopo		ZA-LP	157	1
623	Saint James		JM-08	1	1
624	Westfjords			94	1
625	Provence-Alpes-Côte d'Azur			186	1
626	Mato Grosso		BR-MT	143	1
627	Burgundy			186	1
628	Sikkim		IN-SK	27	1
629	Las Tunas		CU-10	-1	1
630	Thessalia		GR-E	9	1
631	Jeju Island			48	1
632	Ivano-Frankivsk			56	1
633	Värmland			53	1
634	Lika-Senj County			163	1
635	Lower-Saxony			159	1
636	Grisons			57	1
637	Jura			57	1
638	Portland		JM-04	1	1
639	Port Said Governorate			172	1
640	Encamp		AD-03	168	1
641	Szabolcs-Szatmar-Bereg		HU-SZ	129	1
642	Drenthe		NL-DR	65	1
643	Kumamoto		JP-43	66	1
644	Castile and Leon			28	1
645	Gyeonggi-do			48	1
646	Leitrim		IE-LM	86	1
647	Angus		GB-ANS	23	1
648	Transcarpathia			56	1
649	New Mexico		US-NM	8	1
650	Londonderry County			23	1
651	Catamarca		AR-K	154	1
652	Sodermanland			53	1
653	Dalarna			53	1
654	Gorj		RO-GJ	123	1
655	Magallanes		CL-MA	182	1
656	Gavleborg			53	1
657	Buckinghamshire		GB-BKM	23	1
658	Brandenburg		DE-BB	159	1
659	Assam		IN-AS	27	1
660	Strathclyde			23	1
661	Latgale			11	1
662	South Yorkshire			23	1
663	Brunei-Muara		BN-BM	191	1
664	Al Batinah		OM-BA	180	1
665	East Anatolia Region			132	1
666	Schwyz			57	1
667	Picardy			186	1
668	Missouri		US-MO	8	1
669	Murcia		ES-MU	28	1
670	Covasna		RO-CV	123	1
671	Oita			66	1
672	Paraíba		BR-PB	143	1
673	Karachay-Cherkessia			120	1
674	South District Israel			31	1
675	Ordino		AD-05	168	1
676	Giurgiu		RO-GR	123	1
677	Split-Dalmatia County			163	1
678	Eastern Province			89	1
679	Västerbotten			53	1
680	Auckland Region			32	1
681	Skåne			53	1
682	Thuringia			159	1
683	Marmara Region			132	1
684	Andhra Pradesh		IN-AP	27	1
685	Botoşani		RO-BT	123	1
686	Apulia			196	1
687	Vilnius county			35	1
688	Sevastopol			56	1
689	Košický kraj		SK-KI	108	1
690	Plovdiv		BG-16	24	1
691	Virovitica-Podravina County			163	1
692	Krabi		TH-81	101	1
693	Muhu			85	1
694	Geneva			57	1
695	Balearic Islands			28	1
696	Tyrol			103	1
697	Down County			23	1
698	Wiltshire		GB-WIL	23	1
699	Zug			57	1
700	Mykolayiv			56	1
701	Eastern Cape		ZA-EC	157	1
702	Nordland		NO-18	134	1
703	Shandong		CN-37	12	1
704	Bacău		RO-BC	123	1
705	Läänemaa		EE-57	85	1
706	Baden-Württemberg		DE-BW	159	1
707	Mie		JP-24	66	1
708	Vienna (state)			103	1
709	Oulu (province)			50	1
710	Caraş-Severin		RO-CS	123	1
711	Shiga			66	1
712	Bahia		BR-BA	143	1
713	Gorenjska (Upper Carniola)			34	1
714	Pest		HU-PE	129	1
715	Ile de France			186	1
716	Phetchabun		TH-67	101	1
717	Mpumalanga		ZA-MP	157	1
718	Nara		JP-29	66	1
719	Sverdlovsk			120	1
720	Donegal County			86	1
721	Pahang		MY-06	135	1
722	Valencia Community			28	1
723	Languedoc-Roussillon		FR-K	186	1
724	Zeeland		NL-ZE	65	1
725	Okayama		JP-33	66	1
726	Xinjiang		CN-65	12	1
727	Kedah		MY-02	135	1
728	Coahuila		MX-COA	166	1
729	Mersch			45	1
730	Burgenland		AT-1	103	1
731	Smolyan		BG-21	24	1
732	East Iceland			94	1
733	Faiyum Governate			172	1
734	Asunción		PY-ASU	13	1
735	Zhytomyr			56	1
736	Kochi			66	1
737	Louisiana		US-LA	8	1
738	San Juan		AR-J	154	1
739	Vratsa		BG-06	24	1
740	County Cork			86	1
741	Gwynedd		GB-GWN	23	1
742	East Riding of Yorkshire		GB-ERY	23	1
743	Atacama		CL-AT	182	1
744	Sarawak		MY-13	135	1
745	Noord-Brabant		NL-NB	65	1
746	British Columbia		CA-BC	164	1
747	Montana		US-MT	8	1
748	Zurich			57	1
749	Waterford County			86	1
750	Grevenmacher		LU-G	45	1
751	Zuid-Holland		NL-ZH	65	1
752	Gunma		JP-10	66	1
753	Ningxia		CN-64	12	1
754	St.Gallen Canton			57	1
755	Phra Nakhon Si Ayutthaya 			101	1
756	Vladimir			120	1
757	Telšiai county			35	1
758	Ialomiţa		RO-IL	123	1
759	Gwent			23	1
760	Río Negro		AR-R	154	1
761	Tarapacá		CL-TA	182	1
762	Santa Catarina		BR-SC	143	1
763	Thurgau			57	1
764	Ceará		BR-CE	143	1
765	Jõgevamaa		EE-49	85	1
766	Crimea			56	1
767	Aegean Region Turkey			132	1
768	Akita		JP-05	66	1
769	Seoul Special City			48	1
770	Emilia-Romagna		IT-45	196	1
771	Tokyo Prefecture			66	1
772	Jujuy		AR-Y	154	1
773	New Jersey		US-NJ	8	1
774	Valgamaa		EE-82	85	1
775	Glamorgan			23	1
776	Vojvodina			82	1
777	Targovishte		BG-25	24	1
778	Rondonia		BR-RO	143	1
779	Oaxaca		MX-OAX	166	1
780	Central Governorate			187	1
781	Montana		BG-12	24	1
782	Arges		RO-AG	123	1
783	Lat Krabang			101	1
784	Silesia			69	1
785	Puntarenas		CR-P	104	1
786	Tartumaa		EE-78	85	1
787	Piauí		BR-PI	143	1
788	Åland Islands			50	1
789	Tel Aviv District			31	1
790	Vysocina		CZ-VY	151	1
791	Prešovský kraj		SK-PV	108	1
792	Pleven		BG-15	24	1
793	Newfoundland and Labrador		CA-NL	164	1
794	La Rioja		ES-LO	28	1
795	La Rioja		AR-F	154	1
796	Cumbria		GB-CMA	23	1
797	Mizoram		IN-MZ	27	1
798	Luang Prabang			74	1
799	Stara Zagora		BG-24	24	1
800	Abruzzo		IT-65	196	1
801	Mississippi		US-MS	8	1
802	Guerrero		MX-GRO	166	1
803	Kuyavian-Pomeranian			69	1
804	Fermanagh County			23	1
805	Morelos		MX-MOR	166	1
806	Trentino Alto Adige			196	1
807	Chiang Rai		TH-57	101	1
808	Namur		BE-WNA	93	1
809	Phang Nga			101	1
810	Oklahoma		US-OK	8	1
811	Ciego de Ávila		CU-08	-1	1
812	Schaffhausen			57	1
813	Blekinge			53	1
814	West Bengal		IN-WB	27	1
815	Cantabria		ES-CB	28	1
816	South Sinai			172	1
817	Wellington		NZ-WGN	32	1
818	Piura		PE-PIU	30	1
819	Somogy		HU-SO	129	1
820	Red Sea			172	1
821	Matanzas		CU-04	-1	1
822	Iowa		US-IA	8	1
823	Nagaland		IN-NL	27	1
824	Trelawney			1	1
825	Kagoshima			66	1
826	Olt		RO-OT	123	1
827	Al Asimah			26	1
828	Durham		GB-DUR	23	1
829	Redange			45	1
830	Al Jahra			26	1
831	Alberta		CA-AB	164	1
832	Toyama		JP-16	66	1
833	Beijing Province			12	1
834	Amazonas		BR-AM	143	1
835	Raplamaa		EE-70	85	1
836	Derbyshire		GB-DBY	23	1
837	Argyll and Bute		GB-AGB	23	1
838	Santo Domingo		DO-32	195	1
839	Taranaki		NZ-TKI	32	1
840	Alexandria Governorate			172	1
841	Carinthia			34	1
842	Michigan		US-MI	8	1
843	Port of Spain Province			55	1
844	Prahova		RO-PH	123	1
845	Punjab		IN-PB	27	1
846	Lincolnshire		GB-LIN	23	1
847	Guangxi		CN-45	12	1
848	Manawatu			32	1
849	Trnavský kraj		SK-TA	108	1
850	Haifa District			31	1
851	Siem Reap Province			128	1
852	Liguria		IT-42	196	1
853	Chanthaburi		TH-22	101	1
854	Cordillera		PY-3	13	1
855	Pernik		BG-14	24	1
856	Călăraşi		RO-CL	123	1
857	Tolna		HU-TO	129	1
858	Kentucky		US-KY	8	1
859	Lazio		IT-62	196	1
860	Iaşi		RO-IS	123	1
861	North Carolina		US-NC	8	1
862	Basel-Landschaft			57	1
863	Suez Governorate			172	1
864	Anhui		CN-34	12	1
865	Moravia-Silesia			151	1
866	Algarve			64	1
867	Sumy			56	1
868	Hiroshima			66	1
869	Amapá		BR-AP	143	1
870	Gauteng		ZA-GT	157	1
871	Hansestadt Hamburg			159	1
872	Lodz			69	1
873	Maramureş		RO-MM	123	1
874	Western Australia		AU-WA	118	1
875	Yukon		CA-YT	164	1
876	Queensland		AU-QLD	118	1
877	Capellen			45	1
878	Sichuan		CN-51	12	1
879	Satu Mare		RO-SM	123	1
880	Musandam		OM-MU	180	1
881	Petchaburi			101	1
882	Uri			57	1
883	Hubei		CN-42	12	1
884	Vas		HU-VA	129	1
885	Gansu		CN-62	12	1
886	Capital Governorate			187	1
887	Varaždin County			163	1
888	Tabasco		MX-TAB	166	1
889	Stavropol			120	1
890	Yamaguchi			66	1
891	Bay of Plenty		NZ-BOP	32	1
892	Vaslui		RO-VS	123	1
893	Chongqing Province			12	1
894	South Moravia			151	1
895	Tauragė county			35	1
896	Syddanmark			112	1
897	Rio Grande do Sul		BR-RS	143	1
898	Ontario		CA-ON	164	1
899	Prince Edward Island		CA-PE	164	1
900	Samara			120	1
901	Hajdu-Bihar		HU-HB	129	1
902	Hordaland		NO-12	134	1
903	Karlovac county			163	1
904	Midtjylland			112	1
905	Yaroslavl			120	1
906	Zhejiang		CN-33	12	1
907	La Pampa		AR-L	154	1
908	Bratislavský kraj		SK-BL	108	1
909	Nagasaki		JP-42	66	1
910	Holguín		CU-11	-1	1
911	Miyazaki		JP-45	66	1
912	Neuchâtel			57	1
913	Epirus			9	1
914	Penang			135	1
915	Maharashtra		IN-MH	27	1
916	Notranjska (Inner Carniola)			34	1
917	Grampian			23	1
918	Saint Mary		JM-05	1	1
919	Corsica			186	1
920	Limousin		FR-L	186	1
921	Kardzhali		BG-09	24	1
922	Nunavut		CA-NU	164	1
923	Bedfordshire		GB-BDF	23	1
924	Highlands			23	1
925	Antofagasta		CL-AN	182	1
926	Buenos Aires Province			154	1
927	Illinois		US-IL	8	1
928	Gisborne			32	1
929	Sant Julià de Lòria		AD-06	168	1
930	Wisconsin		US-WI	8	1
931	Westmoreland		JM-10	1	1
932	Groningen		NL-GR	65	1
933	Orissa		IN-OR	27	1
934	Wakayama		JP-30	66	1
935	Shumen			24	1
936	Yucatán		MX-YUC	166	1
937	Umm al-Quwain			22	1
938	Lesser Poland			69	1
939	Zasavje			34	1
940	Tyne and Wear			23	1
941	Kyustendil			24	1
942	Suceava		RO-SV	123	1
943	Schleswig-Holstein		DE-SH	159	1
944	Hidalgo		MX-HID	166	1
945	Berlin Federal State			159	1
946	Peloponnese			9	1
947	Ehime		JP-38	66	1
948	Yambol		BG-28	24	1
949	Córdoba		AR-X	154	1
950	Västra Götaland			53	1
951	Essex		GB-ESS	23	1
952	Galway County			86	1
953	Posavje			34	1
954	Masovia			69	1
955	Waikato		NZ-WKO	32	1
956	Nebraska		US-NE	8	1
957	Oxfordshire		GB-OXF	23	1
958	Lower Silesia			69	1
959	Staffordshire		GB-STS	23	1
960	Valais			57	1
961	New Hampshire		US-NH	8	1
962	Attica			9	1
963	Nitriansky kraj		SK-NI	108	1
964	Wicklow County			86	1
965	Sinaloa		MX-SIN	166	1
966	San Luis		AR-D	154	1
967	Westmorland			23	1
968	Berkshire			23	1
969	Teleorman		RO-TR	123	1
970	Tochigi			66	1
971	Hawaii		US-HI	8	1
972	Phnom Penh Municipality			128	1
973	Taipei Municipality			15	1
974	Marche		IT-57	196	1
975	Molise		IT-67	196	1
976	Santa Cruz		AR-Z	154	1
977	Okinawa		JP-47	66	1
978	Osaka Prefecture			66	1
979	Dumfries and Galloway		GB-DGY	23	1
980	Aargau			57	1
981	Araucanía		CL-AR	182	1
982	Fujian		CN-35	12	1
983	Vermont		US-VT	8	1
984	Basel-City			57	1
985	Brasov		RO-BV	123	1
986	Maine		US-ME	8	1
987	Saitama		JP-11	66	1
988	Longford		IE-LD	86	1
989	Mindanao			38	1
990	Maranhão		BR-MA	143	1
991	Luxor			172	1
992	Jerusalem District			31	1
993	Florida		US-FL	8	1
994	Remich			45	1
995	Tamaulipas		MX-TAM	166	1
996	Fukui			66	1
997	Hunedoara		RO-HD	123	1
998	Chubut		AR-U	154	1
999	Rayong		TH-21	101	1
1000	Blagoevgrad		BG-01	24	1
1001	Matruh 			172	1
1002	Kampong Thom Province			128	1
1003	Lampang Province			101	1
1004	Meknes-Tafilalet		MA-06	47	1
1005	Al Muharraq		BH-15	187	1
1006	Ratchaburi		TH-70	101	1
1007	Makira Province			126	1
1008	Tbilisi Province			160	1
1009	Pran Buri Province			101	1
1010	Nantou		TW-NAN	15	1
1011	Durres County			29	1
1012	Kampot Province			128	1
1013	Rabat-Sale-Zemmour-Zaer		MA-07	47	1
1014	Cetinje County			63	1
1015	Magdalena		CO-MAG	52	1
1016	Maule		CL-ML	182	1
1017	Beheira			172	1
1018	Kukës County			29	1
1019	O'Higgins			182	1
1020	Santander		CO-SAN	52	1
1021	Kien Giang 			124	1
1022	Aceh		ID-AC	18	1
1023	Najran		SA-10	89	1
1024	Nakhonpathom Province			101	1
1025	Antioquia		CO-ANT	52	1
1026	Buriram Province			101	1
1027	Jawf			89	1
1028	Nograd		HU-NO	129	1
1029	Pathumthani Province			101	1
1030	Durango		MX-DUR	166	1
1031	Ratanakiri Province			128	1
1032	Phayao Province			101	1
1033	Korçë County			29	1
1034	Cundinamarca		CO-CUN	52	1
1035	Bursa		TR-16	132	1
1036	La Libertad		PE-LAL	30	1
1037	Champasak			74	1
1038	Asyut		EG-AST	172	1
1039	Risaralda		CO-RIS	52	1
1040	Ucayali		PE-UCA	30	1
1041	Kandal Province			128	1
1042	Irbid Governorate			72	1
1043	Sibenik-Knin County			163	1
1044	Shkoder County			29	1
1045	Kampangpet Province			101	1
1046	Ba Ria - Vung Tau			124	1
1047	Heves		HU-HE	129	1
1048	Tacuarembo		UY-TA	51	1
1049	Jaffna District			91	1
1050	Mukdahan Province			101	1
1051	Al Sharqia			172	1
1052	Tataouine		TN-83	59	1
1053	Gampaha District			91	1
1054	Artigas		UY-AR	51	1
1055	Berat County			29	1
1056	Bangka Belitung		ID-BB	18	1
1057	Tozeur 			59	1
1058	Kalasin Province			101	1
1059	Western Province			126	1
1060	Riau		ID-RI	18	1
1061	Samut Sakhon Province			101	1
1062	Arauca		CO-ARA	52	1
1063	Daejeon Metropolitan City			48	0
1064	Grand Casablanca		MA-08	47	1
1065	Sa Kaeo Province			101	1
1066	Highlands Region			190	1
1067	San Andres and Providencia Islands			52	1
1068	Le Kef		TN-33	59	1
1069	San Martin		PE-SAM	30	1
1070	Galle District			91	1
1071	Tanger-Tetouan		MA-01	47	1
1072	East Nusa Tenggara			18	1
1073	Salto		UY-SA	51	1
1074	Matale District			91	1
1075	Quang Ninh		VN-13	124	1
1076	Sohag			172	1
1077	Nan		TH-55	101	1
1078	Tolima		CO-TOL	52	1
1079	Ferizaj County			177	1
1080	Zadar County			163	1
1081	Los Rios		CL-LR	182	1
1082	Lezhë County			29	1
1083	Kolasin County			63	1
1084	South East Sulawesi			18	1
1085	Valle del Cauca		CO-VAC	52	1
1086	Putumayo		CO-PUT	52	1
1087	Central Java			18	1
1088	Rio Negro		UY-RN	51	1
1089	Hai Phong Municipality			124	1
1090	Putrajaya Federal Territory			135	1
1091	Al Khor			140	1
1092	Guelmim-Es Semara			47	1
1093	Bar County			63	1
1094	Caquetá		CO-CAQ	52	1
1095	Gjilan County			177	1
1096	Nakhon Phanom Province			101	1
1097	Colonia			51	1
1098	Chiayi		TW-CYQ	15	1
1099	Jakarta Province			18	1
1100	Siliana		TN-34	59	1
1101	Chernivtsi Region			56	1
1102	Kegalle District			91	1
1103	Tacna		PE-TAC	30	1
1104	West Nusa Tenggara			18	1
1105	Panama		PA-8	107	1
1106	Ho Chi Minh Municipality			124	1
1107	Papua		ID-PA	18	1
1108	Zaghouan		TN-22	59	1
1109	Gorontalo		ID-GO	18	1
1110	Al Ahmadi		KW-AH	26	1
1111	Lamphun		TH-51	101	1
1112	Ayacucho		PE-AYA	30	1
1113	Gyeongsangbuk-Do			48	1
1114	Cordoba		CO-COR	52	1
1115	Stirlingshire			23	1
1116	Soriano		UY-SO	51	1
1117	Luhansk			56	1
1118	Budva County			63	1
1119	Riau Archipelago			18	1
1120	Ariana		TN-12	59	1
1121	Minya			172	1
1122	Florida		UY-FD	51	1
1123	Sisaket Province			101	1
1124	Mexico DF			166	1
1125	Dibër County			29	1
1126	Phrae		TH-54	101	1
1127	Mondulkiri Province			128	1
1128	Cerro Largo			51	1
1129	Amazonas		PE-AMA	30	1
1130	Junín		PE-JUN	30	1
1131	Gharb-Ghrada-Beni Hsen			47	1
1132	Phitsanuloke			101	1
1133	Bolivar		CO-BOL	52	1
1134	Monufia 			172	1
1135	Udon Thani		TH-41	101	1
1136	Mahdia		TN-53	59	1
1137	Maldonado		UY-MA	51	1
1138	Lampung		ID-LA	18	1
1139	Nelson Region			32	1
1140	Oddar Meanchey Province			128	1
1141	Ajara			160	1
1142	Gjirokastër County			29	1
1143	Sukhothai		TH-64	101	1
1144	Ampara District			91	1
1145	Nakhon Ratchasima		TH-30	101	1
1146	Ninh Binh		VN-18	124	1
1147	Mitrovica County			177	1
1148	Loreto		PE-LOR	30	1
1149	Bolikhamxay			74	1
1150	Doukkala-Abda		MA-10	47	1
1151	Thua Thien - Hue			124	1
1152	South Sumatra			18	1
1153	Ubon Ratchathani Province			101	1
1154	Anuradhapura District			91	1
1155	Yogyakarta Province			18	1
1156	West Java			18	1
1157	Sfax		TN-61	59	1
1158	Kotor County			63	1
1159	Hualien		TW-HUA	15	1
1160	Pasco		PE-PAS	30	1
1161	Tumbes		PE-TUM	30	1
1162	Jambi		ID-JA	18	1
1163	Binh Duong 			124	1
1164	Chungcheongnam-Do			48	1
1165	Ancash		PE-ANC	30	1
1166	Ha Noi Municipality			124	1
1167	Samckhe Javakheti			160	1
1168	Atlántico		CO-ATL	52	1
1169	Tunis		TN-11	59	1
1170	Maluku		ID-ML	18	1
1171	Moquegua		PE-MOQ	30	1
1172	Papua Region			190	1
1173	Caldas		CO-CAL	52	1
1174	Qalyubia			172	1
1175	Mannar District			91	1
1176	Ica		PE-ICA	30	1
1177	Manouba			59	1
1178	Preah Sihanouk Province			128	1
1179	Kuala Lumpur Federal Territory			135	1
1180	Gabes		TN-81	59	1
1181	Durazno		UY-DU	51	1
1182	Gharbia			172	1
1183	East Java			18	1
1184	As Sulaymaniah			90	1
1185	West Sulawesi			18	1
1186	Miaoli		TW-MIA	15	1
1187	Lao Cai		VN-02	124	1
1188	Pristina County			177	1
1189	South Sulawesi			18	1
1190	West Papua			18	1
1191	Sucre		CO-SUC	52	1
1192	Lower Austria			103	1
1193	Tak		TH-63	101	1
1194	Roi Et Province			101	1
1195	Guaviare		CO-GUV	52	1
1196	Kakheti		GE-KA	160	1
1197	Lopburi			101	1
1198	Central Kalimantan			18	1
1199	Chungcheongbuk-Do			48	1
1200	Matara District			91	1
1201	Nabeul		TN-21	59	1
1202	Kilinochchi District			91	1
1203	Peja County			177	1
1204	North Maluku			18	1
1205	Vavuniya District			91	1
1206	Surin		TH-32	101	1
1207	Colombo District			91	1
1208	West Sumatra			18	1
1209	Xieng Khouang			74	1
1210	Arica y Parinacota		CL-AP	182	1
1211	Stung Treng Province			128	1
1212	Northern Borders			89	1
1213	Amazonas		CO-AMA	52	1
1214	Trincomalee District			91	1
1215	Ratnapura District			91	1
1216	Nakhon Nayok		TH-26	101	1
1217	Guajira			52	1
1218	Huila		CO-HUI	52	1
1219	Zabljak County			63	1
1220	Kasserine		TN-42	59	1
1221	Pattani		TH-94	101	1
1222	Puttalam District			91	1
1223	Cesar		CO-CES	52	1
1224	Laayoune-Boujdour-Sakia-Hamra			47	1
1225	Can Tho Municipality			124	1
1226	Ar Rayyan		QA-RA	140	1
1227	Souss-Massa-Draa		MA-13	47	1
1228	Tivat County			63	1
1229	Imereti		GE-IM	160	1
1230	Nong Khai		TH-43	101	1
1231	Kampong Chhnang Province			128	1
1232	New Taipei Municipality			15	1
1233	Central Sulawesi			18	1
1234	Jeollanam-Do			48	1
1235	Tabuk		SA-07	89	1
1236	Batticaloa District			91	1
1237	Nakornsawan			101	1
1238	Keelung			15	1
1239	Boyacá		CO-BOY	52	1
1240	Provincia de Lima			30	1
1241	Ang Thong Province			101	1
1242	Trang		TH-92	101	1
1243	Podgorica County			63	1
1244	Kebili		TN-73	59	1
1245	Bizerte		TN-23	59	1
1246	Komarom-Esztergom		HU-KE	129	1
1247	Meta		CO-MET	52	1
1248	Gjakovë County			177	1
1249	Huancavelica		PE-HUV	30	1
1250	Yasothon Province			101	1
1251	Oued Eddahab-Lagouira			47	1
1252	East Kalimantan			18	1
1253	Kvemo Kartly			160	1
1254	Kozani Prefecture			9	0
1255	Polonnaruwa District			91	1
1256	Satun 			101	1
1257	Da Nang Municipality			124	1
1258	Al Wakrah 			140	1
1259	North Sinai Governorate			172	1
1260	Guizhou		CN-52	12	1
1261	Shida Kartli		GE-SK	160	1
1262	Nuwara Eliya District			91	1
1263	Ulsan Metropolitan City			48	0
1264	South Kalimantan			18	1
1265	Kratie Province			128	1
1266	Taichung Municipality		TW-TXG	15	1
1267	Casanare		CO-CAS	52	1
1268	Apurimac		PE-APU	30	1
1269	Nonthaburi		TH-12	101	1
1270	Samut Songkhram		TH-75	101	1
1271	Marrakech-Tensift-Haouz			47	1
1272	Lam Dong		VN-35	124	1
1273	Ben Arous		TN-13	59	1
1274	Uttaradit Province			101	1
1275	Kafr el-Sheikh			172	1
1276	Kep Province			128	1
1277	Sidi Bouzid		TN-43	59	1
1278	Jendouba		TN-32	59	1
1279	Fes-Boulmane			47	1
1280	Huánuco		PE-HUC	30	1
1281	Nariño		CO-NAR	52	1
1282	Tadla-Azilal		MA-12	47	1
1283	Kurunegala District			91	1
1284	Jasz-Nagykun-Szolnok		HU-JN	129	1
1285	Temotu Province			126	1
1286	Maha Sarakham Province			101	1
1287	Prachinburi Province			101	1
1288	Amnat Charoen Province			101	1
1289	Qena			172	1
1290	Samut Prakan Province			101	1
1291	Bekes		HU-BE	129	1
1292	Flores		UY-FS	51	1
1293	Pingtung		TW-PIF	15	1
1294	Saraburi		TH-19	101	1
1295	Taza-Hoceima-Taounate			47	1
1296	Vidzeme			11	1
1297	Bacs-Kiskun		HU-BK	129	1
1298	Mullaitivu District			91	1
1299	Kampong Cham Province			128	1
1300	Badulla District			91	1
1301	Gwangju Metropolitan City			48	0
1302	Canelones			51	1
1303	Fier County			29	1
1304	Gafsa		TN-71	59	1
1305	Orizren County			177	1
1306	Phu Yen		VN-32	124	1
1307	Samegrelo Zveno-Svaneti			160	1
1308	Mont-Rif-Tazghine			47	1
1309	New Valley  			172	1
1310	Binh Thuan		VN-40	124	1
1311	Momase Region			190	1
1312	Vaupes		CO-VAU	52	1
1313	Aysen			182	1
1314	Narathiwas			101	1
1315	Yunlin		TW-YUN	15	1
1316	Chainat Province			101	1
1317	Singburi Province			101	1
1318	Beni Suef			172	1
1319	Andaman and Nicobar			27	1
1320	Ismailia			172	1
1321	Ulcinj County			63	1
1322	Beja		TN-31	59	1
1323	Lavalleja		UY-LA	51	1
1324	Hsinchu		TW-HSQ	15	1
1325	Imathia Prefecture			9	1
1326	Rivera		UY-RV	51	1
1327	Racha			160	1
1328	Yilan			15	1
1329	Hambantota District			91	1
1330	Loei		TH-42	101	1
1331	Chachoengsao Province			101	1
1332	Tirana County			29	1
1333	Treinta y Tres		UY-TT	51	1
1334	Saint Eustatius			141	1
1335	Chandigarh		IN-CH	27	1
1336	Kairouan		TN-41	59	1
1337	Mtkheta-Mtianeti			160	1
1338	Cajamarca		PE-CAJ	30	1
1339	Chiriqui		PA-4	107	1
1340	Lambayeque		PE-LAM	30	1
1341	Medenine		TN-82	59	1
1342	Takeo Province			128	1
1343	Svay Rieng Province			128	1
1344	Saba		BQ-SA	141	1
1345	Guria		GE-GU	160	1
1346	Csongrád		HU-CS	129	1
1347	Banten		ID-BT	18	1
1348	North Sulawesi			18	1
1349	Cauca		CO-CAU	52	1
1350	Penghu County			15	1
1351	Bengkulu		ID-BE	18	1
1352	Kalutara District			91	1
1353	State of Mexico			166	1
1354	West Kalimantan			18	1
1355	Southern Governorate			187	1
1356	Elbasan County			29	1
1357	Preah Vihear Province			128	1
1358	Chaouia-Ourdigha			47	1
1359	Kandy District			91	1
1360	Khanh Hoa		VN-34	124	1
1361	Quindio		CO-QUI	52	1
1362	Koh Kong Province			128	1
1363	Paysandu		UY-PA	51	1
1364	Jazan			89	1
1365	Nong Bua Lamphu Province			101	1
1366	Mae Hong Son		TH-58	101	1
1367	Sakon Nakhon Province			101	1
1368	North Sumatra			18	1
1369	Pursat Province			128	1
1370	Chihuahua		MX-CHH	166	1
1371	Gyor-Moson-Sopron		HU-GS	129	1
1372	Prey Veng Province			128	1
1373	Jeollabuk-Do			48	1
1374	Jarash Governorate			72	1
1375	Choco		CO-CHO	52	1
1376	Herceg Novi County			63	1
1377	Yala		TH-95	101	1
1378	Vichada		CO-VID	52	1
1379	Kaohsiung Municipality			15	1
1380	Vlorë County			29	1
1381	Rocha		UY-RO	51	1
1382	Chaiyaphum Province			101	1
1383	Taitung		TW-TTT	15	1
1384	Pailin Province			128	1
1385	Banteay Meanchey Province			128	1
1386	Norte de Santander		CO-NSA	52	1
1387	Tainan Municipality		TW-TNN	15	1
1388	Puno		PE-PUN	30	1
1389	Bueng Kan Province			101	1
1390	Monaragala District			91	1
1391	Battambang Province			128	1
1392	Monastir		TN-52	59	1
1393	Wales		GB-WLS	23	1
1394	England		GB-ENG	23	1
1395	Scotland		GB-SCT	23	1
1396	Distrito Federal		MX-DIF	166	1
1397	Northern Ireland		GB-NIR	23	1
1398	Channel Islands			23	1
1399	St. Gallen			57	1
1400	Freistadt			103	1
1401	Aruba			105	1
1402	Manche		FR-50	186	1
1403	Yvelines		FR-78	186	1
1404	Aude		FR-11	186	1
1405	Ankara		TR-06	132	1
1406	Jaén		ES-J	28	1
1407	Mecklenburg Western Pomerania			159	1
1408	Larissa			9	1
1409	Las Palmas		ES-GC	28	1
1410	Gorizia		IT-GO	196	1
1411	Bolzano		IT-BZ	196	1
1412	Sancti Spíritus		CU-07	201	1
1413	Navarra		ES-NA	28	1
1414	Gmunden			103	1
1415	Cagliari		IT-CA	196	1
1416	Pontevedra		ES-PO	28	1
1417	La Altagracia		DO-11	195	1
1418	Copan		HN-CP	162	1
1419	Neunkirchen			103	1
1420	Sankt Pölten			103	1
1421	Zell am See			103	1
1422	Val d Oise			186	1
1423	Côtes d Armor			186	1
1424	Territoire de Belfort		FR-90	186	1
1425	Saint Elizabeth		JM-11	1	1
1426	Nueva Esparta		VE-O	92	1
1427	Kufstein			103	1
1428	Klagenfurt Land			103	1
1429	Phetchaburi		TH-76	101	1
1430	Aveiro		PT-01	64	1
1431	Saint Vincent and The Grenadines			148	1
1432	Teramo		IT-TE	196	1
1433	Ostrava Mìsto			151	1
1434	Potenza		IT-PZ	196	1
1435	Imst			103	1
1436	Tiranë		AL-TR	29	1
1437	Saint Ann		JM-06	1	1
1438	Bregenz			103	1
1439	Fürstenfeld			103	1
1440	Oberpullendorf			103	1
1441	Ardennes		FR-08	186	1
1442	Castelo Branco		PT-05	64	1
1443	Sarthe		FR-72	186	1
1444	Haut Rhin			186	1
1445	Luxembourg		BE-WLX	93	1
1446	Samaná		DO-20	195	1
1447	Pesaro e Urbino		IT-PU	196	1
1448	Vila Real		PT-17	64	1
1449	Reggio Emilia		IT-RE	196	1
1450	České Budĕjovice		CZ-311	151	1
1451	Anguilla			46	1
1452	Álava Araba			28	1
1453	Luzern			57	1
1454	Kadiogo		BF-KAD	241	1
1455	Brabant Wallon		BE-WBR	93	1
1456	Dodecanese			9	1
1457	Evia			9	1
1458	Macerata		IT-MC	196	1
1459	Taranto		IT-TA	196	1
1460	Nimes			186	1
1461	Azuay		EC-A	96	1
1462	Segovia		ES-SG	28	1
1463	Sør-Trønderlag Fylke			134	1
1464	Coimbra		PT-06	64	1
1465	Cádiz		ES-CA	28	1
1466	Gers		FR-32	186	1
1467	Soria		ES-SO	28	1
1468	Kyiv		UA-30	56	1
1469	Lagoa			64	1
1470	Brno			151	1
1471	Saint John			14	1
1472	Corfu			9	1
1473	Corrèze		FR-19	186	1
1474	Brindisi		IT-BR	196	1
1475	Pyrénées Atlantiques			186	1
1476	Trapani		IT-TP	196	1
1477	Barcelona		ES-B	28	1
1478	León		ES-LE	28	1
1479	Mayenne		FR-53	186	1
1480	Sankt Veit an der Glan			103	1
1481	Leiria		PT-10	64	1
1482	Loire		FR-42	186	1
1483	Vendée		FR-85	186	1
1484	Rovigo		IT-RO	196	1
1485	Chieti		IT-CH	196	1
1486	Baden			103	1
1487	Krems an der Donau			103	1
1488	Thies		SN-TH	3	1
1489	Matanzas		CU-04	201	1
1490	Mödling			103	1
1491	Lima		PE-LIM	30	1
1492	Saint Martin			17	1
1493	Sankt Johann im Pongau			103	1
1494	Barletta Andria Trani			196	1
1495	Padua			196	1
1496	Frosinone		IT-FR	196	1
1497	Aberdeenshire		GB-ABD	23	1
1498	Seine Maritime			186	1
1499	Reggio Calabria		IT-RC	196	1
1500	Spittal an der Drau			103	1
1501	Setúbal		PT-15	64	1
1502	Hadhramaut			88	1
1503	Skåne Län			53	1
1504	Kyrenia			175	1
1505	Bucharest			123	1
1506	Cheb		CZ-411	151	1
1507	Kitzbühel			103	1
1508	Córdoba		ES-CO	28	1
1509	Vicenza		IT-VI	196	1
1510	Akmola			4	1
1511	Wien Umgebung			103	1
1512	Grande Lisboa			64	1
1513	Marne		FR-51	186	1
1514	Perg			103	1
1515	Alessandria		IT-AL	196	1
1516	Bludenz			103	1
1517	Forlì Cesena			196	1
1518	Haute Corse			186	1
1519	Prato		IT-PO	196	1
1520	Krems-Land			103	1
1521	Hermagor			103	1
1522	Semily		CZ-514	151	1
1523	Lot		FR-46	186	1
1524	Burgos		ES-BU	28	1
1525	Sarajevo			62	1
1526	Harju Maakond			85	1
1527	Ciudad de La Habana		CU-03	201	1
1528	Central Russia			120	1
1529	Teplice		CZ-426	151	1
1530	Samos		GR-84	9	1
1531	Granada		ES-GR	28	1
1532	Baleares		ES-PM	28	1
1533	Faro		PT-08	64	1
1534	Treviso		IT-TV	196	1
1535	Essonne		FR-91	186	1
1536	Cantal		FR-15	186	1
1537	Lienz			103	1
1538	Pomorskie		PL-PM	69	1
1539	Chios		GR-85	9	1
1540	Prachatice		CZ-315	151	1
1541	Terni		IT-TR	196	1
1542	Vlaams Brabant		BE-VBR	93	1
1543	Lucca		IT-LU	196	1
1544	Turin			196	1
1545	Agrigento		IT-AG	196	1
1546	Capital Federal			154	1
1547	Loiret		FR-45	186	1
1548	National Capital Region		PH-00	38	1
1549	Isère		FR-38	186	1
1550	Feldbach			103	1
1551	Ferrara		IT-FE	196	1
1552	Udine		IT-UD	196	1
1553	Distrito Capital			13	1
1554	Indre		FR-36	186	1
1555	Cayman Islands			77	1
1556	Klagenfurt			103	1
1557	Cuneo		IT-CN	196	1
1558	Beja		PT-02	64	1
1559	Krung Thep			101	1
1560	Pafos		CY-05	175	1
1561	Tuamasaga		WS-TU	39	1
1562	Crotone		IT-KR	196	1
1563	Massa Carrara			196	1
1564	Sanliurfa		TR-63	132	1
1565	Tarn		FR-81	186	1
1566	Feldkirch			103	1
1567	Palermo		IT-PA	196	1
1568	Obalnokraska			34	1
1569	Ash Shariqah			22	1
1570	Primorje Gorski kotar			163	1
1571	Barbados			167	1
1572	Grand Port		MU-GP	110	1
1573	Dordogne		FR-24	186	1
1574	Messinia		GR-17	9	1
1575	Naples			196	1
1576	Tábor		CZ-317	151	1
1577	Västra Götaland Län			53	1
1578	Spodnjeposavska			34	1
1579	Skopje			100	1
1580	Malaga		ES-MA	28	1
1581	Ávila		ES-AV	28	1
1582	Vöcklabruck			103	1
1583	Verona		IT-VR	196	1
1584	Ciego de Avila		CU-08	201	1
1585	Hamburg		DE-HH	159	1
1586	Zanzibar Urban/West			194	1
1587	Kirchdorf an der Krems			103	1
1588	Viterbo		IT-VT	196	1
1589	Santa Cruz de Tenerife		ES-TF	28	1
1590	Stockholms Län			53	1
1591	Pinar del Río		CU-01	201	1
1592	Incheon			48	1
1593	North Central Serbia			82	1
1594	Badajoz		ES-BA	28	1
1595	Çanakkale		TR-17	132	1
1596	Moray		GB-MRY	23	1
1597	Messina		IT-ME	196	1
1598	Graubunden			57	1
1599	Rieti		IT-RI	196	1
1600	Alicante/Alacant			28	1
1601	Bas Rhin			186	1
1602	Isparta		TR-32	132	1
1603	Murau			103	1
1604	Asti		IT-AT	196	1
1605	Oise		FR-60	186	1
1606	Lecco		IT-LC	196	1
1607	Almaty		KZ-ALA	4	1
1608	Belluno		IT-BL	196	1
1609	Heraklion			9	1
1610	Erzurum		TR-25	132	1
1611	Santiago de Cuba		CU-13	201	1
1612	Podravska			34	1
1613	Cáceres		ES-CC	28	1
1614	Singapore			147	1
1615	West Lothian		GB-WLN	23	1
1616	Ariège		FR-09	186	1
1617	Malopolskie		PL-MA	69	1
1618	Chalkidiki		GR-64	9	1
1619	Cautin			182	1
1620	Pescara		IT-PE	196	1
1621	Trebon			151	1
1622	Siena		IT-SI	196	1
1623	Parma		IT-PR	196	1
1624	Ain		FR-01	186	1
1625	Tarn et Garonne			186	1
1626	Polling im Innkreis			103	1
1627	South Holland			65	1
1628	Warsaw			69	1
1629	Hallein			103	1
1630	Charente		FR-16	186	1
1631	Oristano		IT-OR	196	1
1632	Pyrénées Orientales			186	1
1633	Denizli		TR-20	132	1
1634	Renfrewshire		GB-RFW	23	1
1635	Porto		PT-13	64	1
1636	Lleida		ES-L	28	1
1637	Pordenone		IT-PN	196	1
1638	Campobasso		IT-CB	196	1
1639	Luxembourg			45	1
1640	Trikala		GR-44	9	1
1641	Albacete		ES-AB	28	1
1642	Holguín		CU-11	201	1
1643	Puy de Dôme			186	1
1644	Viana do Castelo		PT-16	64	1
1645	Vercelli		IT-VC	196	1
1646	Haute Saône			186	1
1647	Lugo		ES-LU	28	1
1648	Bragança		PT-04	64	1
1649	Slaskie		PL-SL	69	1
1650	Graz-Umgebung			103	1
1651	Orne		FR-61	186	1
1652	Calvados		FR-14	186	1
1653	Aveyron		FR-12	186	1
1654	Modena		IT-MO	196	1
1655	North Brabant			65	1
1656	Weiz			103	1
1657	Hautes Alpes			186	1
1658	Tulln			103	1
1659	Avellino		IT-AV	196	1
1660	Mombasa			122	1
1661	La Spezia		IT-SP	196	1
1662	South Dublin			86	1
1663	Verbano Cusio Ossola			196	1
1664	Hautes Pyrénées			186	1
1665	Leoben			103	1
1666	Benešov		CZ-201	151	1
1667	Haute Loire			186	1
1668	Pavia		IT-PV	196	1
1669	Beroun		CZ-202	151	1
1670	Grosseto		IT-GR	196	1
1671	Liepaja		LV-LPX	11	1
1672	Ragusa		IT-RG	196	1
1673	Attiki   Athina			9	1
1674	Ceský Krumlov		CZ-312	151	1
1675	Venezia		IT-VE	196	1
1676	Cairo			172	1
1677	Landes		FR-40	186	1
1678	Distrito Nacional			195	1
1679	Drôme		FR-26	186	1
1680	Oost Vlaanderen			93	1
1681	Budapest		HU-BU	129	1
1682	Managua		NI-MN	139	1
1683	Castellón/Castelló			28	1
1684	Dolnoslaskie		PL-DS	69	1
1685	Rize		TR-53	132	1
1686	Melk			103	1
1687	Guipúzcoa Gipuzkoa			28	1
1688	Saône et Loire			186	1
1689	Troodos			175	1
1690	Sakarya		TR-54	132	1
1691	Zakynthos		GR-21	9	1
1692	Catania		IT-CT	196	1
1693	Var		FR-83	186	1
1694	Sokolov		CZ-413	151	1
1695	Martinique			145	1
1696	Alpes de Haute Provence			186	1
1697	Cephalonia			9	1
1698	Vizcaya Bizkaia			28	1
1699	Dominica			98	1
1700	Indre et Loire			186	1
1701	Maine et Loire			186	1
1702	Pisa		IT-PI	196	1
1703	Alpes Maritimes			186	1
1704	Somme		FR-80	186	1
1705	Ad Dawhah		QA-DA	140	1
1706	Ciudad Real		ES-CR	28	1
1707	Doubs		FR-25	186	1
1708	Narathiwat		TH-96	101	1
1709	Zaragoza		ES-Z	28	1
1710	Como		IT-CO	196	1
1711	Baku			146	1
1712	Isernia		IT-IS	196	1
1713	Lefkada		GR-24	9	1
1714	Abu Zaby			22	1
1715	Nuoro		IT-NU	196	1
1716	Pas de Calais			186	1
1717	Villach			103	1
1718	Trinidad and Tobago			55	1
1719	Obwald			57	1
1720	Rimini		IT-RN	196	1
1721	Aetolia Acarnania			9	1
1722	Goriska			34	1
1723	Aosta		IT-AO	196	1
1724	Cyclades			9	1
1725	Litomerice		CZ-423	151	1
1726	Côte d Or			186	1
1727	Caserta		IT-CE	196	1
1728	Savona		IT-SV	196	1
1729	Liezen			103	1
1730	A Coruña		ES-C	28	1
1731	Catanzaro		IT-CZ	196	1
1732	Moselle		FR-57	186	1
1733	Zanzibar Central/South			194	1
1734	Thessaloniki		GR-54	9	1
1735	San Pedro de Macorís		DO-23	195	1
1736	Quang Nam		VN-27	124	1
1737	Khomas		NA-KH	16	1
1738	Osaka			66	1
1739	Jura		FR-39	186	1
1740	Vaucluse		FR-84	186	1
1741	Izmir		TR-35	132	1
1742	Bocas del Toro		PA-1	107	1
1743	Santarém		PT-14	64	1
1744	Sondrio		IT-SO	196	1
1745	Toledo		ES-TO	28	1
1746	Sacatepéquez		GT-SA	41	1
1747	Klaipedos			35	1
1748	Schwaz			103	1
1749	Yonne		FR-89	186	1
1750	Ilha de Boavista			184	1
1751	Wels			103	1
1752	Milan			196	1
1753	Haute Marne			186	1
1754	Tachov		CZ-327	151	1
1755	Ardèche		FR-07	186	1
1756	Ceuta		ES-CE	28	1
1757	Val de Marne			186	1
1758	Lassithi			9	1
1759	Herzegovina-Neretva			62	1
1760	La Romana		DO-12	195	1
1761	Santiago			182	1
1762	Bologna		IT-BO	196	1
1763	Haute Garonne			186	1
1764	Piacenza		IT-PC	196	1
1765	Aydin		TR-09	132	1
1766	Andorra La Vella		AD-07	168	1
1767	Feldkirchen			103	1
1768	Ascoli Piceno		IT-AP	196	1
1769	Hong Kong			12	1
1770	Zambezia		MZ-Q	209	1
1771	Plzeň Mĕsto		CZ-323	151	1
1772	Waidhofen an der Ybbs			103	1
1773	Graz			103	1
1774	Mürzzuschlag			103	1
1775	Biella		IT-BI	196	1
1776	Paris		FR-75	186	1
1777	Bergamo		IT-BG	196	1
1778	Savoie		FR-73	186	1
1779	Norrbottens Län			53	1
1780	Diyarbakir		TR-21	132	1
1781	Antananarivo		MG-T	178	1
1782	Landeck			103	1
1783	Phthiotis			9	1
1784	Lot et Garonne			186	1
1785	Perugia		IT-PG	196	1
1786	British Virgin Islands			127	1
1787	Charente Maritime			186	1
1788	Latina		IT-LT	196	1
1789	Guadalajara		ES-GU	28	1
1790	Southwestern			100	1
1791	Rïgas			11	1
1792	Santiago		DO-25	195	1
1793	Zamora		ES-ZA	28	1
1794	Varese		IT-VA	196	1
1795	Trutnov		CZ-525	151	1
1796	Caltanissetta		IT-CL	196	1
1797	Sporadic Islands			9	1
1798	Leghorn			196	1
1799	L'Aquila		IT-AQ	196	1
1800	Meurthe et Moselle			186	1
1801	Macao			12	1
1802	Pichincha		EC-P	96	1
1803	Sassari		IT-SS	196	1
1804	Cuenca		ES-CU	28	1
1805	North West Russia			120	1
1806	Mugla		TR-48	132	1
1807	Korinthia		GR-15	9	1
1808	Potosí		BO-P	68	1
1809	Güssing			103	1
1810	Finistère		FR-29	186	1
1811	Vosges		FR-88	186	1
1812	Innsbruck Land			103	1
1813	Mantua			196	1
1814	Foggia		IT-FG	196	1
1815	Dong Nam Bo			124	1
1816	Chuquisaca		BO-H	68	1
1817	Turks and Caicos			174	1
1818	Saint Lucia			137	1
1819	Eure et Loir			186	1
1820	Strakonice		CZ-316	151	1
1821	Monaco			186	1
1822	Dubayy			22	1
1823	Ilia			9	1
1824	Achaia		GR-13	9	1
1825	Ille et Vilaine			186	1
1826	Saint Andrew		JM-02	1	1
1827	Dakar		SN-DK	3	1
1828	Hanover		JM-09	1	1
1829	Bahamas			125	1
1830	Almería		ES-AL	28	1
1831	Konya		TR-42	132	1
1832	Cher		FR-18	186	1
1833	Kutná Hora		CZ-205	151	1
1834	Sevilla		ES-SE	28	1
1835	Xinjiang Uyghur			12	1
1836	Pistoia		IT-PT	196	1
1837	Karabük		TR-78	132	1
1838	Tashkent Shahri			185	1
1839	Trieste		IT-TS	196	1
1840	Malta Island			19	1
1841	Lemesos		CY-02	175	1
1842	Ogliastra		IT-OG	196	1
1843	Istanbul		TR-34	132	1
1844	Wielkopolskie		PL-WP	69	1
1845	Bali		ID-BA	18	1
1846	Hauts de Seine			186	1
1847	Hérault		FR-34	186	1
1848	Šibenik Knin			163	1
1849	Teruel		ES-TE	28	1
1850	Innsbruck Stadt			103	1
1851	Saint Kitts and Nevis			119	1
1852	Mistelbach			103	1
1853	Vibo Valentia		IT-VV	196	1
1854	Arezzo		IT-AR	196	1
1855	Leibnitz			103	1
1856	Seine Saint Denis			186	1
1857	Znojmo		CZ-627	151	1
1858	Southern Sinai			172	1
1859	Southern Leyte		PH-SLE	38	1
1860	Cosenza		IT-CS	196	1
1861	Siracusa		IT-SR	196	1
1862	Gänserndorf			103	1
1863	West Vlaanderen			93	1
1864	Seine et Marne			186	1
1865	Hania			9	1
1866	Cienfuegos		CU-06	201	1
1867	Gard		FR-30	186	1
1868	Girona		ES-GI	28	1
1869	Vienne		FR-86	186	1
1870	Niassa		MZ-A	209	1
1871	Maputo		MZ-L	209	1
1872	St. Martin			149	1
1873	Aisne		FR-02	186	1
1874	Benevento		IT-BN	196	1
1875	Reutte			103	1
1876	Lichtenstein			115	1
1877	Curaçao			149	1
1878	Eure		FR-27	186	1
1879	Salamanca		ES-SA	28	1
1880	Bari		IT-BA	196	1
1881	Midlothian		GB-MLN	23	1
1882	Distrito Nacional			52	1
1883	Eisenstadt			103	1
1884	Allier		FR-03	186	1
1885	Antalya		TR-07	132	1
1886	Adana		TR-01	132	1
1887	San Marino		SM-07	44	1
1888	Gironde		FR-33	186	1
1889	Nièvre		FR-58	186	1
1890	Linz			103	1
1891	Haute Savoie			186	1
1892	Inhambane		MZ-I	209	1
1893	Rethimno			9	1
1894	Viseu		PT-18	64	1
1895	Enna		IT-EN	196	1
1896	Lozère		FR-48	186	1
1897	Voitsberg			103	1
1898	Lodi		IT-LO	196	1
1899	Loire Atlantique			186	1
1900	Guarda		PT-09	64	1
1901	Salerno		IT-SA	196	1
1902	Nevsehir		TR-50	132	1
1903	Portalegre		PT-12	64	1
1904	Valladolid		ES-VA	28	1
1905	Trento		IT-TN	196	1
1906	Argolis			9	1
1907	Punjab		PK-PB	111	1
1908	Morbihan		FR-56	186	1
1909	Ravenna		IT-RA	196	1
1910	Madrid		ES-M	28	1
1911	Magnissia			9	1
1912	Lecce		IT-LE	196	1
1913	Florence			196	1
1914	Rhône		FR-69	186	1
1915	Matera		IT-MT	196	1
1916	Braga		PT-03	64	1
1917	Ourense		ES-OR	28	1
1918	Notranjsko Kraska			34	1
1919	Imperia		IT-IM	196	1
1920	Évora		PT-07	64	1
1921	Olbia Tempio			196	1
1922	Mazowieckie		PL-MZ	69	1
1923	Escaldes Engordany			168	1
1924	Bouches du Rhône			186	1
1925	Black River		MU-BL	110	1
1926	Puerto Rico			71	1
1927	Tarragona		ES-T	28	1
1928	North Holland			65	1
1929	Saint Barthélemy			142	1
1930	Genoa			196	1
1931	Corse du Sud			186	1
1932	Huelva		ES-H	28	1
1933	Loir et Cher			186	1
1934	Novara		IT-NO	196	1
1935	Aube		FR-10	186	1
1936	Brescia		IT-BS	196	1
1937	Attiki   Nissia Saronikou			9	1
1938	Rome			196	1
1939	Ancona		IT-AN	196	1
1940	Haute Vienne			186	1
1941	Cremona		IT-CR	196	1
1942	Villach Land			103	1
1943	Huesca		ES-HU	28	1
1944	Karlovy Vary		CZ-412	151	1
1945	Palencia		ES-P	28	1
1946	Tangier-Tétouan			47	1
1947	Elias Pina			195	1
1948	Eastern Highlands		PG-EHG	190	1
1949	Western			150	1
1950	Cook Islands			95	1
1951	Chuvash			120	1
1952	Thesprotia		GR-32	9	1
1953	Oriental			47	1
1954	Svalbard			206	1
1955	Zenica-Doboj			62	1
1956	Milne Bay		PG-MBA	190	1
1957	Angola			16	1
1958	León		NI-LE	139	1
1959	Evros		GR-71	9	1
1960	Ilocos Norte		PH-ILN	38	1
1961	Grenada			171	1
1962	Negros Oriental		PH-NER	38	1
1963	Madang		PG-MPM	190	1
1964	Rhondda, Cynon, Taff			23	1
1965	Jindřichův Hradec		CZ-313	151	1
1966	Saint Croix			181	1
1967	Melilla		ES-ML	28	1
1968	Swansea			23	1
1969	Maria Trinidad Sanchez		DO-14	195	1
1970	Abuja			25	1
1971	Denbighshire			23	1
1972	Cortés		HN-CR	162	1
1973	Riau Islands			18	1
1974	Cavite		PH-CAV	38	1
1975	Rivers		NG-RI	25	1
1976	North West District			102	1
1977	Bay Islands			162	1
1978	Ashanti		GH-AH	176	1
1979	Cardenal Caro			182	1
1980	Andaman			27	1
1981	Krasnodar Krai			120	1
1982	Fatick		SN-FK	3	1
1983	Cēsis			11	1
1984	Hardap		NA-HA	16	1
1985	Male		MV-MLE	5	1
1986	Merthyr Tydfil			23	1
1987	Cardiff			23	1
1988	West Coast		NZ-WTC	32	1
1989	Palawan		PH-PLW	38	1
1990	Zachodniopomorskie		PL-ZP	69	1
1991	Moldova			106	1
1992	Valdivia			182	1
1993	Břeclav		CZ-624	151	1
1994	Judea and Samaria Area			31	1
1995	Francisco Morazán		HN-FM	162	1
1996	Greater accra		GH-AA	176	1
1997	Gangwon			48	1
1998	Matn			99	1
1999	Masaya		NI-MS	139	1
2000	Southern Cameroons			138	1
2001	North Jeolla			48	1
2002	Miranda		VE-M	92	1
2003	Pieria		GR-61	9	1
2004	Albay		PH-ALB	38	1
2005	Ñuble			182	1
2006	Fermo		IT-FM	196	1
2007	Maekel			199	1
2008	Kladno		CZ-203	151	1
2009	El Loa			182	1
2010	Leeward Islands			6	1
2011	Malatya		TR-44	132	1
2012	Dornbirn			103	1
2013	Nišava			82	1
2014	Federal District			143	1
2015	East Coast			32	1
2016	Cochabamba		BO-C	68	1
2017	La Paz		BO-L	68	1
2018	Cebu		PH-CEB	38	1
2019	Banjul		GM-B	81	1
2020	Seychelles			169	1
2021	Oran		DZ-31	153	1
2022	South Lanarkshire		GB-SLK	23	1
2023	La Paz		SV-PA	188	1
2024	Siquijor		PH-SIG	38	1
2025	Vyškov		CZ-626	151	1
2026	Algiers			153	1
2027	Tartu County			85	1
2028	Streymoy			76	1
2029	Mangystau			4	1
2030	General Carrera			182	1
2031	Cross Rivers			25	1
2032	La Union		SV-UN	188	1
2033	Perm Krai			120	1
2034	Barlavento Islands			184	1
2035	Chanaral			182	1
2036	Cayenne			130	1
2037	Chisinau		MD-CU	106	1
2038	Gyeonggi			48	1
2039	Arcadia			9	1
2040	Dalarnas Län			53	1
2041	Etoloakarnania			9	1
2042	Jennersdorf			103	1
2043	South Gloucestershire		GB-SGC	23	1
2044	Moyle		GB-MYL	23	1
2045	Rodrigues Island		MU-RO	110	1
2046	Phocis			9	1
2047	Concepción			182	1
2048	Benguet		PH-BEN	38	1
2049	Western Visayas			38	1
2050	Lusaka		ZM-09	117	1
2051	Erongo		NA-ER	16	1
2052	Western Province			91	1
2053	Lumbini		NP-LU	97	1
2054	Negros Occidental		PH-NEC	38	1
2055	Adjara			160	1
2056	Muharraq			187	1
2057	Busan			48	1
2058	Saint Louis			3	1
2059	Ioannina		GR-33	9	1
2060	Saint Phillip			14	1
2061	Salima		MW-SA	228	1
2062	Santa Cruz		BO-S	68	1
2063	Ústí nad Orlicí		CZ-534	151	1
2064	Petorca			182	1
2065	Tuamotus			6	1
2066	Trabzon		TR-61	132	1
2067	Sonsonate		SV-SO	188	1
2068	Eastern		FJ-E	161	1
2069	Ulan Bator			83	1
2070	Boeotia			9	1
2071	Hollabrunn			103	1
2072	Viljandi County			85	1
2073	Marquesas Islands			6	1
2074	Jihlava		CZ-612	151	1
2075	San Miguel		SV-SM	188	1
2076	Port Louis			110	1
2077	Luanda		AO-LUA	79	1
2078	Surigao Del Norte		PH-SUN	38	1
2079	Saint Thomas			181	1
2080	Limavady		GB-LMV	23	1
2081	North Western Province			91	1
2082	Dhaka		BD-13	156	1
2083	Oberwart			103	1
2084	Preveza		GR-34	9	1
2085	Bridgend			23	1
2086	Uva Province			91	1
2087	North Central		MV-NC	5	1
2088	Littoral		BJ-LI	220	1
2089	Iloilo		PH-ILI	38	1
2090	Děčín		CZ-421	151	1
2091	Nouakchott		MR-NKC	170	1
2092	Torfaen			23	1
2093	Banská Bystrica			108	1
2094	Northeast			94	1
2095	Choapa			182	1
2096	Cotopaxi		EC-X	96	1
2097	Cachapoal			182	1
2098	Frýdek-Místek			151	1
2099	Pampanga		PH-PAM	38	1
2100	Kolín		CZ-204	151	1
2101	South Jeolla			48	1
2102	West			94	1
2103	South Ayrshire		GB-SAY	23	1
2104	Narayani		NP-NA	97	1
2105	Nymburk		CZ-208	151	1
2106	Jugovzhodna Slovenija			34	1
2107	Central Bosnia			62	1
2108	Gaga'emauga		WS-GE	39	1
2109	Grieskirchen			103	1
2110	Perth and Kinross		GB-PKN	23	1
2111	Kavango			16	1
2112	Upper North		MV-UN	5	1
2113	Kamphaeng Phet		TH-62	101	1
2114	Deux-Sèvres		FR-79	186	1
2115	Ried im Innkreis			103	1
2116	Jeallanam			48	1
2117	Lempira		HN-LE	162	1
2118	Republika Srpska		BA-SRP	62	1
2119	Qasim			89	1
2120	Bristol			23	1
2121	Bonaire			149	1
2122	Bermuda			10	1
2123	Solola		GT-SO	41	1
2124	Santa Ana		SV-SA	188	1
2125	Bolivar		VE-F	92	1
2126	Windward Islands			6	1
2127	Baha			89	1
2128	Rio San Juan		NI-SJ	139	1
2129	Western Region			176	1
2130	Neath Port Talbot			23	1
2131	Völkermarkt			103	1
2132	Yerevan			155	1
2133	Atlantida		HN-AT	162	1
2134	Ayutthaya			101	1
2135	Huasco			182	1
2136	Zulia		VE-V	92	1
2137	Waidhofen an der Thaya			103	1
2138	Saint Mary		AG-05	14	1
2139	Coleraine		GB-CLR	23	1
2140	Ahuachapan		SV-AH	188	1
2141	Patagonia			182	1
2142	Banbridge		GB-BNB	23	1
2143	Neusiedl am See			103	1
2144	Rift Valley		KE-700	122	1
2145	Elqui			182	1
2146	Pomurska			34	1
2147	Tamsweg			103	1
2148	Stirling		GB-STG	23	1
2149	Savanne		MU-SA	110	1
2150	Central		FJ-C	161	1
2151	Heredia		CR-H	104	1
2152	Lilongwe		MW-LI	228	1
2153	North Ayrshire		GB-NAY	23	1
2154	Central Region			176	1
2155	Manisa		TR-45	132	1
2156	Radkersburg			103	1
2157	Hail			89	1
2158	Esmeraldas		EC-E	96	1
2159	Caerphilly			23	1
2160	Nairobi		KE-110	122	1
2161	Västmanlands Län			53	1
2162	Creuse		FR-23	186	1
2163	Kunene		NA-KU	16	1
2164	Ulsan			48	1
2165	Coclé		PA-2	107	1
2166	Klatovy		CZ-322	151	1
2167	Chiloé			182	1
2168	Coast		KE-300	122	1
2169	Izabal		GT-IZ	41	1
2170	Osijek-Baranja			163	1
2171	Afyon			132	1
2172	Bissau		GW-BS	227	1
2173	Scottish Borders			23	1
2174	Bamako		ML-BKO	87	1
2175	Conwy		GB-CWY	23	1
2176	Karas		NA-KA	16	1
2177	Iquique			182	1
2178	Žďár nad Sázavou		CZ-615	151	1
2179	Batangas		PH-BTG	38	1
2180	East			94	1
2181	Colon		PA-3	107	1
2182	Kosrae		FM-KSA	84	1
2183	Carmarthenshire			23	1
2184	South			94	1
2185	Eastern Province			91	1
2186	South Gyeongsang			48	1
2187	West Dunbartonshire		GB-WDU	23	1
2188	Písek		CZ-314	151	1
2189	Newport			23	1
2190	Hatay		TR-31	132	1
2191	Dobele			11	1
2192	East Lothian		GB-ELN	23	1
2193	Peten		GT-PE	41	1
2194	Bujumbura-Mairie			207	1
2195	Uppsala Län			53	1
2196	Rousse			24	1
2197	Jeju			48	1
2198	East Ayrshire		GB-EAY	23	1
2199	South		MV-SU	5	1
2200	Hartberg			103	1
2201	Central Province			91	1
2202	Yap		FM-YAP	84	1
2203	Swaziland			20	1
2204	Schärding			103	1
2205	Jeallabuk			48	1
2206	Province of Lapland			50	1
2207	North Chungcheong			48	1
2208	Carabobo		VE-G	92	1
2209	Caprivi		NA-CA	16	1
2210	Vale of Glamorgan			23	1
2211	Akwa Ibom		NG-AK	25	1
2212	North Gyeongsang			48	1
2213	Addis Ababa			240	1
2214	Monmouthshire			23	1
2215	Larne		GB-LRN	23	1
2216	Carbonia-Iglesias		IT-CI	196	1
2217	Oriental Mindoro			38	1
2218	Davao			38	1
2219	Bohol		PH-BOH	38	1
2220	Tukums			11	1
2221	Gandaki		NP-GA	97	1
2222	South Chungcheong			48	1
2223	Sindh		PK-SD	111	1
2224	Northern		FJ-N	161	1
2225	Kefalonia			9	1
2226	Gaziantep		TR-27	132	1
2227	Blantyre		MW-BL	228	1
2228	Cordillera			182	1
2229	Meuse		FR-55	186	1
2230	North		MV-NO	5	1
2231	Bagmati		NP-BA	97	1
2232	Southern province			91	1
2233	Lagos		NG-LA	25	1
2234	Manawatu-Wanganui		NZ-MWT	32	1
2235	Central		MV-CE	5	1
2236	Easter Island			182	1
2237	Valmiera		LV-VMR	11	1
2238	Nueva Ecija		PH-NUE	38	1
2239	Guam			67	1
2240	Colchagua			182	1
2241	Antsiranana		MG-D	178	1
2242	Estuaire		GA-1	234	1
2243	Trujillo			30	1
2244	Samar			38	1
2245	Mzimba		MW-MZ	228	1
2246	Södermanlands Län			53	1
2247	Chañaral			182	1
2248	Flintshire			23	1
2249	Strabane		GB-STB	23	1
2250	Minsk			192	1
2251	Rust			103	1
2252	Zomba		MW-ZO	228	1
2253	Orkney Islands		GB-ORK	23	1
2254	Thyolo		MW-TH	228	1
2255	Alto Paraná		PY-10	13	1
2256	Ogooue-Maritime		GA-8	234	1
2257	North Bačka			82	1
2258	Saare			85	1
2259	Stann Creek		BZ-SC	165	1
2260	Wolfsberg			103	1
2261	Guadalcanal		SB-GU	126	1
2262	Kavala		GR-55	9	1
2263	Amhara			240	1
2264	wrexham			23	1
2265	Va'a-o-Fonoti		WS-VF	39	1
2266	Outer Hebrides			23	1
2267	Banqiao			15	1
2268	South Central		MV-SC	5	1
2269	Western		FJ-W	161	1
2270	Eskişehir		TR-26	132	1
2271	Samegrelo			160	1
2272	North Somerset		GB-NSM	23	1
2273	Laguna		PH-LAG	38	1
2274	Tierra del Fuego			182	1
2275	Talca			182	1
2276	Cabo Delgado		MZ-P	209	1
2277	Center District			31	1
2278	Steyr			103	1
2279	Rivas		NI-RI	139	1
2280	Gmünd			103	1
2281	Demerara-Mahaica		GY-DE	109	1
2282	Davao del Sur		PH-DAS	38	1
2283	Eastern		KE-400	122	1
2284	Falkirk		GB-FAL	23	1
2285	Ceredigion			23	1
2286	Bioko Norte		GQ-BN	208	1
2287	Cayo		BZ-CY	165	1
2288	Amstetten			103	1
2289	Belize		BZ-BZ	165	1
2290	Deutschlandsberg			103	1
2291	Mashonaland West		ZW-MW	239	1
2292	North Central Province			91	1
2293	Isle Of Wight		GB-IOW	23	1
2294	Balıkesir			132	1
2295	Drama		GR-52	9	1
2296	Ziguinchor		SN-ZG	3	1
2297	Centre Province			138	1
2298	San Salvador		SV-SS	188	1
2299	Örebro Län			53	1
2300	Zakarpattya			56	1
2301	La Libertad		SV-LI	188	1
2302	Upper South		MV-US	5	1
2303	city of edinburgh			23	1
2304	National Capital District			190	1
2305	Kastoria		GR-56	9	1
2306	Lisburn		GB-LSB	23	1
2307	North Lanarkshire		GB-NLK	23	1
2308	Eastern			150	1
2309	Cartago		CR-C	104	1
2310	Bruck an der Mur			103	1
2311	Likoma		MW-LK	228	1
2312	Scheibbs			103	1
2313	Vsetín		CZ-723	151	1
2314	Coihaique			182	1
2315	Medio Campidano		IT-VS	196	1
2316	Granada		NI-GR	139	1
2317	Ilocos Sur		PH-ILS	38	1
2318	Osorno			182	1
2319	Misamis Oriental		PH-MSR	38	1
2320	Sanaa			88	1
2321	Saint Paul		AG-06	14	1
2322	Talsi			11	1
2323	Gyeongsangbuk			48	1
2324	Parinacota			182	1
2325	Värmlands Län			53	1
2326	Ida-Viru			85	1
2327	Laconia			9	1
2328	Łódź			69	1
2329	Judenburg			103	1
2330	Guatemala		GT-GU	41	1
2331	Al Ismailiyah			172	1
2332	Horn			103	1
2333	Gaborone			102	1
2334	Nord Trønderlag			134	1
2335	Lakshadweep		IN-LD	27	1
2336	Glasgow			23	1
2337	Lesbos			9	1
2338	Košice			108	1
2339	Pembrokeshire			23	1
2340	Dun Laoghaire–Rathdown			86	1
2341	Western		GM-W	81	1
2342	Limarí			182	1
2343	Copiapó			182	1
2344	Darlington		GB-DAL	23	1
2345	Isle of Anglesey			23	1
2346	Östergötlands Län			53	1
2347	Clackmannanshire		GB-CLK	23	1
2348	Conakry			242	1
2349	Gibraltar			61	1
2350	Toledo		BZ-TOL	165	1
2351	Llanquihue			182	1
2352	Omagh		GB-OMH	23	1
2353	Sankt Gallen (de)		CH-SG	57	1
2354	Genova		IT-GE	196	1
2355	Rheinland-Pfalz		DE-RP	159	1
2356	Milano		IT-MI	196	1
2357	Bayern		DE-BY	159	1
2358	Usulután		SV-US	188	1
2359	Solothurn (de)		CH-SO	57	1
2360	Niedersachsen		DE-NI	159	1
2361	Roma		IT-RM	196	1
2362	Livorno		IT-LI	196	1
2363	Mecklenburg-Vorpommern		DE-MV	159	1
2364	Sachsen		DE-SN	159	1
2365	Fribourg (fr)		CH-FR	57	1
2366	Torino		IT-TO	196	1
2367	Basel-Landschaft (de)		CH-BL	57	1
2368	Basel-Stadt (de)		CH-BS	57	1
2369	Aargau (de)		CH-AG	57	1
2370	Firenze		IT-FI	196	1
2371	Mantova		IT-MN	196	1
2372	Thüringen		DE-TH	159	1
2373	Monza e Brianza		IT-MB	196	1
2374	Cuscatlán		SV-CU	188	1
2375	Zürich (de)		CH-ZH	57	1
2376	Genève (fr)		CH-GE	57	1
2377	Ticino (it)		CH-TI	57	1
2378	Zug (de)		CH-ZG	57	1
2379	Bern (de)		CH-BE	57	1
2380	Padova		IT-PD	196	1
2381	Sachsen-Anhalt		DE-ST	159	1
2382	Graubünden (de)		CH-GR	57	1
2383	Vaud (fr)		CH-VD	57	1
2384	Nordrhein-Westfalen		DE-NW	159	1
2385	Napoli		IT-NA	196	1
2386	Schwyz (de)		CH-SZ	57	1
2387	Luzern (de)		CH-LU	57	1
2388	Valais (fr)		CH-VS	57	1
2918	Bình Ðịnh			124	1
2919	Biliran		PH-BIL	38	1
2920	Ohrid		MK-58	100	1
2921	Coahuila de Zaragoza			166	1
2922	Saint Michael		BB-08	167	1
2923	Isle of Man			23	1
2924	Cà Mau		VN-59	124	1
2925	Brodsko-Posavska			163	1
2926	Surigao del Sur		PH-SUR	38	1
2927	Levkas			9	1
2928	Mashonaland East		ZW-ME	239	1
2929	Varaždinska			163	1
2930	Barahona		DO-04	195	1
2931	South-East		BW-SE	102	1
2932	Ash Sharqīyah		OM-SH	180	1
2933	Piemonte		IT-21	196	1
2934	Istarska			163	1
2935	Central Ostrobothnia			50	1
2936	Qibili			59	1
2937	Saint Peter Basseterre		KN-11	119	1
2938	East Gothland			53	1
2939	Madanin			59	1
2940	Kozani		GR-58	9	1
2941	Saipan			131	1
2942	Rizal		PH-RIZ	38	1
2943	Quảng Ngãi		VN-29	124	1
2944	Exuma		BS-EX	125	1
2945	Phatthalung		TH-93	101	1
2946	Bulawayo		ZW-BU	239	1
2947	Davao del Norte		PH-DAV	38	1
2948	Alger		DZ-16	153	1
2949	Novo Mesto		SI-085	34	1
2950	Camarines Sur		PH-CAS	38	1
2951	Governor's Harbour			125	1
2952	Jizan		SA-09	89	1
2953	Puducherry			27	1
2954	Metro Manila			38	1
2955	Morogoro		TZ-16	194	1
2956	Northern Ostrobothnia			50	1
2957	Vayots' Dzor			155	1
2958	Ayeyarwady		MM-07	193	1
2959	Suðurnes		IS-2	94	1
2960	Tekirdag		TR-59	132	1
2961	Bulacan		PH-BUL	38	1
2962	Austurland		IS-7	94	1
2963	Christ Church		BB-01	167	1
2964	Romblon		PH-ROM	38	1
2965	Manyara		TZ-26	194	1
2966	Norðurland Eystra		IS-6	94	1
2967	Dodoma		TZ-03	194	1
2968	Bolu		TR-14	132	1
2969	Zamboanga del Sur		PH-ZAS	38	1
2970	Pulau Pinang		MY-07	135	1
2971	Dubrovačko-Neretvanska			163	1
2972	Nueva Vizcaya		PH-NUV	38	1
2973	Misamis Occidental		PH-MSC	38	1
2974	Attapu			74	1
2975	Lạng Sơn		VN-09	124	1
2976	Bashkortostan			120	1
2977	Al Qahirah		EG-C	172	1
2978	`Asir			89	1
2979	Bạc Liêu		VN-55	124	1
2980	Capiz		PH-CAP	38	1
2981	Louangnamtha			74	1
2982	Kainuu		FI-05	50	1
2983	Grenadines		VC-06	148	1
2984	Gozo			19	1
2985	Shan		MM-17	193	1
2986	Vestfirðir		IS-4	94	1
2987	Aurora		PH-AUR	38	1
2988	West Bothnia			53	1
2989	Sint Maarten			114	1
2990	Northern			31	1
2991	Siĕm Réab			128	1
2992	Ðồng Nai			124	1
2993	Pirkanmaa		FI-11	50	1
2994	Bến Tre		VN-50	124	1
2995	Cagayan		PH-CAG	38	1
2996	Andaman and Nicobar Islands		IN-AN	27	1
2997	Manzini		SZ-MA	20	1
2998	Luapula		ZM-04	117	1
2999	Bago		MM-02	193	1
3000	Sóc Trăng		VN-52	124	1
3001	Abu Dhabi			22	1
3002	Ar Riyad		SA-01	89	1
3003	Djibouti		DJ-DJ	213	1
3004	Nord-Trondelag			134	1
3005	Aklan		PH-AKL	38	1
3006	Cahul		MD-CA	106	1
3007	Manabi		EC-M	96	1
3008	Maseru		LS-A	42	1
3009	Sing Buri		TH-17	101	1
3010	Zamboanga Sibugay			38	1
3011	Tyumenskaya			120	1
3012	Kampala		UG-102	217	1
3013	Kymenlaakso		FI-09	50	1
3014	Xaignabouli			74	1
3015	Soufriere		LC-10	137	1
3016	Kayah		MM-12	193	1
3017	Qabis			59	1
3018	More og Romsdal			134	1
3019	Isabela		PH-ISA	38	1
3020	Suphan Buri		TH-72	101	1
3021	Masbate		PH-MAS	38	1
3022	Marrakech-Tensift-Al Haouz		MA-11	47	1
3023	Quezon Province			38	1
3024	Astrakhanskaya			120	1
3025	Northern Savonia			50	1
3026	Al Iskandariyah		EG-ALX	172	1
3027	East of England			23	1
3028	Bonaire		BQ-BO	141	1
3029	Queretaro de Arteaga			166	1
3030	Zambales		PH-ZMB	38	1
3031	Mountain			38	1
3032	Bukidnon		PH-BUK	38	1
3033	Sankt-Peterburg		RU-SPE	120	1
3034	Volgogradskaya			120	1
3035	Kayseri		TR-38	132	1
3036	Voronezhskaya			120	1
3037	Norfolk Island			2	1
3038	Arkadhia			9	1
3039	Mandalay		MM-04	193	1
3040	Arusha		TZ-01	194	1
3041	Arima		TT-ARI	55	1
3042	Kars		TR-36	132	1
3043	Al Manamah			187	1
3044	Dubai			22	1
3045	Anse-la-Raye		LC-01	137	1
3046	Central		KE-200	122	1
3047	Idrija		SI-036	34	1
3048	Corse		FR-H	186	1
3049	Kêb			128	1
3050	Kocaeli		TR-41	132	1
3051	Paro		BT-11	43	1
3052	Primorskiy			120	1
3053	Xiangkhoang			74	1
3054	Ifugao		PH-IFU	38	1
3055	Phichit		TH-66	101	1
3056	Bântéay Méan Cheăy			128	1
3057	Evritania			9	1
3058	Tuamotu-Gambier			6	1
3059	Hòa Bình		VN-14	124	1
3060	Tobago			55	1
3061	Rôtânăh Kiri			128	1
3062	Arbil		IQ-AR	90	1
3063	Belgorodskaya			120	1
3064	Comoros			210	1
3065	Andalusia			28	1
3066	Central		BW-CE	102	1
3067	West Bank			113	1
3068	North			173	1
3069	Pouthisat			128	1
3070	Shefa		VU-SEE	21	1
3071	Haute-Normandie		FR-Q	186	1
3072	Al Buraymī		OM-BU	180	1
3073	Vilniaus Apskritis		LT-VL	35	1
3074	Saint George		GD-03	171	1
3075	Khios			9	1
3076	Ādīs Ābeba		ET-AA	240	1
3077	Kachin		MM-11	193	1
3078	Tortola			127	1
3079	Ðồng Tháp			124	1
3080	Littoral		CM-LT	138	1
3081	Okavango		NA-OK	16	1
3082	Oshikoto		NA-OT	16	1
3083	Kosi			97	1
3084	Ma`ān		JO-MN	72	1
3085	Puglia		IT-75	196	1
3086	Mon		MM-15	193	1
3087	Dadra and Nagar Haveli		IN-DN	27	1
3088	Federal District			166	1
3089	Gwangju City			48	1
3090	Grad Zagreb City			163	1
3091	Phitsanulok		TH-65	101	1
3092	Al Khawr			140	1
3093	Pando		BO-N	68	1
3094	Van		TR-65	132	1
3095	Hhohho		SZ-HH	20	1
3096	Thimphu		BT-15	43	1
3097	London, England			23	1
3098	Monaco			133	1
3099	Z̧ufār		OM-ZU	180	1
3100	Höfuðborgarsvæði			94	1
3101	Satakunta		FI-17	50	1
3102	Solomon Islands			126	1
3103	Basilan Province			38	1
3104	Tây Ninh		VN-37	124	1
3105	Kauno Apskritis		LT-KU	35	1
3106	Kampong Spoe			128	1
3107	Mauritius Island			110	1
3108	Al Balqa'		JO-BA	72	1
3109	Samarqand		UZ-SA	185	1
3110	Central			31	1
3111	Vĩnh Phúc		VN-70	124	1
3112	New Providence			125	1
3113	Ville de N’Djaména			215	1
3114	Sor-Trondelag			134	1
3115	Edirne		TR-22	132	1
3116	Ash Sharqiyah		SA-04	89	1
3117	Veliko Tŭrnovo			24	1
3118	Khammouan		LA-KH	74	1
3119	Federal Capital Territory			25	1
3120	Hong Kong			40	1
3121	Maldives			5	1
3122	Agusan del Norte		PH-AGN	38	1
3123	Sanma		VU-SAM	21	1
3124	Nampula		MZ-N	209	1
3125	Upolu			39	1
3126	Windward			6	1
3127	Saint Peter		AG-07	14	1
3128	Eastern Samar		PH-EAS	38	1
3129	Preăh Seihânŭ			128	1
3130	Kikladhes			9	1
3131	Clarendon		JM-13	1	1
3132	Vlamms-Brabant			93	1
3133	Lemnos			9	1
3134	Janub Sina'		EG-JS	172	1
3135	South Cotabato		PH-SCO	38	1
3136	Evvoia		GR-04	9	1
3137	Hải Duong		VN-61	124	1
3138	Matabeleland North		ZW-MN	239	1
3139	Austral			6	1
3140	Vesturland		IS-3	94	1
3141	Thái Bình		VN-20	124	1
3142	East Midlands, England			23	1
3143	La Union		PH-LUN	38	1
3144	Chin		MM-14	193	1
3145	Chai Nat		TH-18	101	1
3146	Camiguin		PH-CAM	38	1
3147	West Island			118	1
3148	Attiki		GR-I	9	1
3149	Beltinci		SI-002	34	1
3150	Yorkshire and the Humber,England			23	1
3151	Ivanovskaya			120	1
3152	Omskaya			120	1
3153	Uusimaa		FI-18	50	1
3154	Louangphabang			74	1
3155	Leyte		PH-LEY	38	1
3156	Kaoh Kong			128	1
3157	Thaba-Tseka		LS-K	42	1
3158	Marinduque		PH-MAD	38	1
3159	Koror		PW-150	54	1
3160	Mont-Liban			99	1
3161	Khanty-Mansiyskiy			120	1
3162	Kastamonu		TR-37	132	1
3163	Hà Tĩnh		VN-23	124	1
3164	Vientiane Prefecture		LA-VT	74	1
3165	Islas de la Bahia		HN-IB	162	1
3166	West End			77	1
3167	Harbour Island		BS-HI	125	1
3168	Voiotia		GR-03	9	1
3169	Bălţi		MD-BA	106	1
3170	Moskva		RU-MOW	120	1
3171	Brussels Gewest / Région de Bruxelles			93	1
3172	Aitolia kai Akarnania		GR-01	9	1
3173	Savai'i			39	1
3174	Phú Thọ		VN-68	124	1
3175	Cao Bằng		VN-04	124	1
3176	Saint John			181	1
3177	Kayin		MM-13	193	1
3178	Sagarmatha		NP-SA	97	1
3179	Zagrebačka			163	1
3180	Scania			53	1
3181	Providenciales and West Caicos			174	1
3182	Bourgogne		FR-D	186	1
3183	Southern Savonia			50	1
3184	Nam Ðịnh			124	1
3185	Beyrouth			99	1
3186	Bắc Ninh		VN-56	124	1
3187	Reunion			36	1
3188	Bokèo		LA-BK	74	1
3189	Bakı			146	1
3190	Otjozondjupa		NA-OD	16	1
3191	Ðà Nẵng			124	1
3192	Yamalo-Nenetskiy			120	1
3193	Khalkidhiki			9	1
3194	Kilimanjaro		TZ-09	194	1
3195	Freeport			125	1
3196	Sagaing		MM-01	193	1
3197	Sofiya-Grad			24	1
3198	Kingston		JM-01	1	1
3199	Aosta Valley			196	1
3200	Icel			132	1
3201	Matsu Islands			15	1
3202	Khabarovskiy			120	1
3203	Tiền Giang		VN-46	124	1
3204	Macao			80	1
3205	West Gothland			53	1
3206	Thanh Hóa		VN-21	124	1
3207	Bretagne		FR-E	186	1
3208	Kinmen Island			15	1
3209	Primorsko-Goranska			163	1
3210	Saint Joseph		BB-06	167	1
3211	Tafea		VU-TAE	21	1
3212	Udmurtiya			120	1
3213	Antique		PH-ANT	38	1
3214	Kutahya		TR-43	132	1
3215	North-Eastern		KE-500	122	1
3216	Vĩnh Long		VN-49	124	1
3217	An Giang		VN-44	124	1
3218	Fès-Boulemane		MA-05	47	1
3219	Đắk Lắk			124	1
3220	Pohnpei		FM-PNI	84	1
3221	Monagas		VE-N	92	1
3222	Salavan			74	1
3223	Oudomxai			74	1
3224	Ostfold			134	1
3225	Veracruz-Llave			166	1
3226	Kracheh			128	1
3227	Basse-Normandie		FR-P	186	1
3228	Bimini			125	1
3229	Mara		TZ-13	194	1
3230	Alytaus Apskritis		LT-AL	35	1
3231	West Midlands, England			23	1
3232	Bucuresti		RO-B	123	1
3233	Tarlac		PH-TAR	38	1
3234	Rakhine		MM-16	193	1
3235	Điện Biên			124	1
3236	Kareliya			120	1
3237	Al Bahah		SA-11	89	1
3238	Lai Châu		VN-01	124	1
3239	Kerkira			9	1
3240	Ha'il			89	1
3241	Quảng Trị		VN-25	124	1
3242	Dar es Salaam		TZ-02	194	1
3243	Houaphan		LA-HO	74	1
3244	Aksaray		TR-68	132	1
3245	Lanao del Norte		PH-LAN	38	1
3246	Al Karak		JO-KA	72	1
3247	Kaluzhskaya			120	1
3248	Dalecarlia			53	1
3249	Laâyoune-Boujdour-Sakia El Hamra		MA-15	47	1
3250	Az̧ Z̧āhirah		OM-ZA	180	1
3251	Daejeon City			48	1
3252	Saint Thomas Lowland		KN-12	119	1
3253	Uthai Thani		TH-61	101	1
3254	Duzce		TR-81	132	1
3255	Thasos			9	1
3256	Kon Tum		VN-28	124	1
3257	Gia Lai		VN-30	124	1
3258	Nakhon Pathom		TH-73	101	1
3259	Daman and Diu		IN-DD	27	1
3260	Zamboanga del Norte		PH-ZAN	38	1
3261	Bjelovarsko-Bilogorska			163	1
3262	Oshana		NA-ON	16	1
3263	Marquesas			6	1
3264	Daegu City			48	1
3265	North West, England			23	1
3266	Marsh Harbour			125	1
3267	Ninh Thuận		VN-36	124	1
3268	Finland Proper			50	1
3269	Rhone-Alpes		FR-V	186	1
3270	Pangasinan		PH-PAN	38	1
3271	Magallanes y de la Antártica Chilena			182	1
3272	Suðurland		IS-8	94	1
3273	Janakpur		NP-JA	97	1
3274	Brunei and Muara			191	1
3275	Norðurland Vestra		IS-5	94	1
3276	North East, England			23	1
3277	Karpoš		MK-38	100	1
3278	Maribor		SI-070	34	1
3279	Rhodes			9	1
3280	Fokis			9	1
3281	Paget		BM-PAG	10	1
3282	Masqaţ		OM-MA	180	1
3283	Aqmola			4	1
3284	Takev			128	1
3285	Bio-Bio		CL-BI	182	1
3286	Phangnga		TH-82	101	1
3287	Culebra			71	1
3288	Long Island		BS-LI	125	1
3289	Lakonia		GR-16	9	1
3290	Ostrobothnia			50	1
3291	Lâm Ðồng			124	1
3292	South East, England			23	1
3293	Serravalle		SM-09	44	1
3294	Central		PY-11	13	1
3295	Qina		EG-KN	172	1
3296	Nakhon Sawan		TH-60	101	1
3297	Klaipėdos Apskritis		LT-KL	35	1
3298	Krasnoyarskiy			120	1
3299	Venezuelan Capital			92	1
3300	Western Samar		PH-WSA	38	1
3301	Al 'Aqabah			72	1
3302	Delhi National Territory			27	1
3303	Batanes		PH-BTN	38	1
3304	Debar		MK-21	100	1
3305	Šibensko-Kninska			163	1
3306	Belait		BN-BE	191	1
3307	Catanduanes		PH-CAT	38	1
3308	Region Metropolitana			182	1
3309	Tanintharyi		MM-05	193	1
3310	Safaqis			59	1
3311	Saint George Basseterre		KN-03	119	1
3312	Afyonkarahisar		TR-03	132	1
3313	Karbala'		IQ-KA	90	1
3314	Southampton		BM-SOU	10	1
3315	Ouest		HT-OU	75	1
3316	Leeward			6	1
3317	Yangon		MM-06	193	1
3318	Quảng Bình		VN-24	124	1
3319	Hậu Giang		VN-73	124	1
3320	Niue			183	1
3321	Mindoro Occidental		PH-MDC	38	1
3322	Toamasina		MG-A	178	1
3323	Bheri		NP-BH	97	1
3324	Sharjah			22	1
3325	Kigali City			204	1
3326	Kostromskaya			120	1
3327	Gros-Islet			137	1
3328	Akhaia			9	1
3329	Al 'Āşimah			26	1
3330	Bataan		PH-BAN	38	1
3331	Mohales Hoek			42	1
3332	Al Bahr al Ahmar		EG-BA	172	1
3333	Savannahkhét			74	1
3334	Davao Oriental		PH-DAO	38	1
3335	Southern			31	1
3336	North-East		BW-NE	102	1
3337	South			173	1
3338	Ordu		TR-52	132	1
3339	Mondol Kiri			128	1
3340	Toshkent City		UZ-TK	185	1
3341	Tongatapu Island Group			7	1
3342	Bohinj		SI-004	34	1
3343	South Town			77	1
3344	Susah			59	1
3345	Mindoro Oriental		PH-MDR	38	1
3346	Mwanza		TZ-18	194	1
3347	Tlemcen		DZ-13	153	1
3348	Nghệ An		VN-22	124	1
3349	Ikaria			9	1
3350	Thái Nguyên		VN-69	124	1
3351	Burdur		TR-15	132	1
3352	Seti		NP-SE	97	1
3353	Hamilton		BM-HAM	10	1
3354	South West, England			23	1
3355	As Suways		EG-SUZ	172	1
3356	Moneragala			91	1
3357	Labuan			135	1
3358	Kavadarci		MK-36	100	1
3359	Ausser-Rhoden			57	1
3360	Bătdâmbâng			128	1
3361	Samsun		TR-55	132	1
3362	`Ammān			72	1
3363	Saint Thomas		BB-11	167	1
3364	Long An		VN-41	124	1
3365	Dong Nai		VN-39	124	1
3366	Hung Yen		VN-66	124	1
3367	Dak Nong		VN-72	124	1
3368	Ha Nam		VN-63	124	1
3369	Dong Thap		VN-45	124	1
3370	Nam Dinh		VN-67	124	1
3371	Delhi NCR			27	1
3372	Binh Phuoc		VN-58	124	1
3373	Tra Vinh		VN-51	124	1
3374	Dak Lak			124	1
3375	Zagreb Country			163	1
3376	Plzeň			151	1
3377	Monte Cristi		DO-15	195	1
3378	Tavush			155	1
3379	Praha-Západ			151	1
3380	Chrudim		CZ-531	151	1
3381	Vayots Dzor			155	1
3382	Pella		GR-59	9	1
3383	Lääne-Viru			85	1
3384	Medimurje			163	1
3385	Chania		GR-94	9	1
3386	Barbuda		AG-10	14	1
3387	La Guajira		CO-LAG	52	1
3388	El Oro		EC-O	96	1
3389	Bac Giang		VN-54	124	1
3390	Binh Dinh		VN-31	124	1
3391	Son La		VN-05	124	1
3392	Yen Bai		VN-06	124	1
3393	Cost region			122	1
3394	Novgorod Region			120	1
3395	Ha Giang		VN-03	124	1
3396	Murmansk Region			120	1
3397	Bac Kan			124	1
3398	Dien Bien		VN-71	124	1
3399	Pskov Region			120	1
3400	Tuyen Quang		VN-07	124	1
3401	Kabul			-1	1
3402	Xizang		CN-54	12	1
3403	Central Visayas			38	1
3404	Wahiba Sands			180	1
3405	Omusati		NA-OS	16	1
3406	Porto and Northern Portugal			64	1
3407	Jihoceský Kraj		CZ-JC	151	1
3408	Connaught		IE-C	86	1
3409	Jugovžodna Slovenija			34	1
3410	Littoral-Karst			34	1
3411	Zlínský Kraj		CZ-ZL	151	1
3412	Central Slovenia			34	1
3413	Capital City of Prague			151	1
3414	Doukhala-Abda			47	1
3415	Ilocos			38	1
3416	Samegrelo-Zemo Svaneti		GE-SZ	160	1
3417	Región Metropolitana			41	1
3418	Thraki			9	1
3419	Beqaa			99	1
3420	Královéhradecký Kraj		CZ-KR	151	1
3421	Mimaropa			38	1
3422	Magallanes y la Antártica Chilena			182	1
3423	Liberecký Kraj		CZ-LI	151	1
3424	Región Metropolitana de Santiago		CL-RM	182	1
3425	Vargas		VE-X	92	1
3426	Sous-Massa-Drâa			47	1
3427	Manicaland		ZW-MA	239	1
3428	Plzeňský Kraj		CZ-PL	151	1
3429	Huahine			6	1
3430	N'Djamena			215	1
3431	Central Denmark			112	1
3432	Masvingo		ZW-MV	239	1
3433	Southern Denmark			112	1
3434	Aragua		VE-D	92	1
3435	Anzoategui		VE-B	92	1
3436	Calabarzon			38	1
3437	Principality of Liechtenstein			115	1
3438	Southern Region		MW-S	228	1
3439	Federation of Bosnia and Herzegovina			62	1
3440	Centro - Beiras			64	1
3441	Archipel de la Société			6	1
3442	North Denmark			112	1
3443	Sporades Islands			9	1
3444	West Bank			31	1
3445	Principality of Asturias			28	1
3446	North West Territories			164	1
3447	Distrito Capital			92	1
3448	Moravskoslezský Kraj		CZ-MO	151	1
3449	Ulster		IE-U	86	1
3450	Estado de México			166	1
3451	Region of Murcia			28	1
3452	Estoril and Sintra			64	1
3453	Central Luzon			38	1
3454	Castilla y León		ES-CL	28	1
3455	Central Region			97	1
3456	Comino Island			19	1
3457	Ústecký Kraj		CZ-US	151	1
3458	Middlesex			1	1
3459	L'Oriental		MA-04	47	1
3460	Aisén			182	1
3461	Bicol			38	1
3462	Thessaly			9	1
3463	Nidwald			57	1
3464	Basel			57	1
3465	North Aegean Sea			9	1
3466	Eastern Visayas			38	1
3467	Kosovo			82	1
3468	Taza-Al Hoceima-Taounate		MA-03	47	1
3469	Basel Country			57	1
3470	Cornwall			1	1
3471	Mtskheta-Mtianeti		GE-MM	160	1
3472	Tahiti			6	1
3473	Munster		IE-M	86	1
3474	Surrey			1	1
3475	Olomoucký Kraj		CZ-OL	151	1
3476	Falcon		VE-I	92	1
3477	Federal Territories			135	1
3478	Pardubický Kraj		CZ-PA	151	1
3479	Leinster		IE-L	86	1
3480	Tarija		BO-T	68	1
3481	Western Region			97	1
3482	Bijelo Polje County			63	1
3483	Berane County			63	1
3484	Vologda Region			120	1
3485	Niksic County			63	1
3486	Volgograd Region			120	1
3487	Mojkovac County			63	1
3488	Danilovgrad County			63	1
3489	Andrijevica County			63	1
3490	Saint James		BB-04	167	1
3491	Arkhangelsk Region			120	1
3492	Savnik County			63	1
3493	Plav County			63	1
3494	Pluzine County			63	1
3495	Komi Republic			120	1
3496	Pljevlja County			63	1
3497	Rozaje County			63	1
3498	Kampong Speu			128	1
3499	Distrito			143	1
3500	Lindi		TZ-12	194	1
3501	Northern Leyte			38	1
3502	Penzenskaya			120	1
3503	Euboea			9	1
3504	Azad Kashmir		PK-JK	111	1
3505	Mersin		TR-33	132	1
3506	Xékong			74	1
3507	Camarines Norte		PH-CAN	38	1
3508	East Kazakhstan			4	1
3509	Capital Region of Denmark			112	1
3510	Pemba South			194	1
3511	DKI Jakarta			18	1
3512	West Island			158	1
3513	Flemish Brabant			93	1
3514	D.I. Yogyakarta			18	1
3515	Mardin		TR-47	132	1
3516	Ul'yanovskaya			120	1
3517	Sofia-Grad		BG-22	24	1
3518	Sihanoukville			128	1
3519	Karlovačka			163	1
3520	Antwerp			93	1
3521	Khakasiya			120	1
3522	Abra		PH-ABR	38	1
3523	Al Munastir			59	1
3524	Northern Samar		PH-NSA	38	1
3525	Walloon Brabant			93	1
3526	Rogaska Slatina		SI-106	34	1
3527	Wakiso		UG-113	217	1
3528	Buryatiya			120	1
3529	Ta Kaeo			128	1
3530	Mordoviya			120	1
3531	Santiago Metropolitan			182	1
3532	Zadarska			163	1
3533	Cabanatuan			38	1
3534	Northern Areas Pakistan			111	1
3535	Subcarpathian			69	1
3536	Sidi Bu Zayd			59	1
3537	Zonguldak		TR-67	132	1
3538	Magway		MM-03	193	1
3539	Brussels-Capital			93	1
3540	Manus		PG-MRL	190	1
3541	Corozal		BZ-CZL	165	1
3542	Sofala		MZ-S	209	1
3543	South Keeling Islands			158	1
3544				12	1
3545	Southwest Finland			50	1
3546	Porto Moniz			64	1
3547	Castro Marim			64	1
3548	Biscay			28	1
3549	Albufeira			64	1
3550	Banffshire			23	1
3551	Avon			23	1
3552	Bled		SI-003	34	1
3553	Inverness shire			23	1
3554	Calheta			64	1
3555	Apennine Mountains			44	1
3556	Københavns Kommune			112	1
3557	Vila Real de Santo António			64	1
3558	Mafra			64	1
3559	Piran			34	1
3560	Mid Glamorgan			23	1
3561	Machico			64	1
3562	Sintra			64	1
3563	São Vicente			64	1
3564	Fyn			112	1
3565	Cape Verde Peninsula			3	1
3566	La Palma			28	1
3567	xxxx			196	1
3568	Pazin			163	1
3569	Ponta Delgada			64	1
3570	Câmara de Lobos			64	1
3571	South Glamorgan			23	1
3572	Portimão			64	1
3573	Loulé			64	1
3574	Vejle			112	1
3575	Kranjska Gora		SI-053	34	1
3576	Good Land			45	1
3577	Olhão			64	1
3578	Ljubljana		SI-061	34	1
3579	Lerida			28	1
3580	Tallinn			85	1
3581	xxxx			64	1
3582	Medvode		SI-071	34	1
3583	Cascais			64	1
3584	Al Farwaniyah		KW-FA	26	1
3585	Ardennes			45	1
3586	Ribeira Brava			64	1
3587	Hurghada			172	1
3588	Santa Cruz			64	1
3589	Århus			112	1
3590	Sønderjylland			112	1
3591	Baja			166	1
3592	Silves			64	1
3593	Tavira			64	1
3594	Ponta do Sol			64	1
3595	Butha Buthe			42	1
3596	New Ireland		PG-NIK	190	1
3597	Tachira		VE-S	92	1
3598	Kibaale District			217	1
3599	Masindi District			217	1
3600	Žilina			108	1
3601	Pointe-Noire			243	1
3602	Wiener Neustadt-Land			103	1
3603	Kaluga			120	1
3604	Litoral Province			208	1
3605	Northern Sinai			172	1
3606	Ayrshire and Arran			23	1
3607	Kahramanmaras		TR-46	132	1
3608	Rivière du Rempart		MU-RR	110	1
3609	Karaman		TR-70	132	1
3610	Aiga-i-le-Tai		WS-AL	39	1
3611	Carazo		NI-CA	139	1
3612	Bhaktapur			97	1
3613	Manchester		JM-12	1	1
3614	Manabi'			96	1
3615	Rupandehi			97	1
3616	Kyenjojo District 			217	1
3617	Karelia			120	1
3618	Maoli			15	1
3619	Stirling and Falkirk			23	1
3620	Omsk			120	1
3621	Gaza		MZ-G	209	1
3622	Flacq		MU-FL	110	1
3623	Fa'asaleleaga		WS-FA	39	1
3624	Rwanda			204	1
3625	Santo Domingo			107	1
3626	St John			181	1
3627	Archipelago of San Andrés			52	1
3628	Ross and Cromarty			23	1
3629	Central		ZM-02	117	1
3630	Loja		EC-L	96	1
3631	New Caledonia			173	1
3632	Cookstown		GB-CKT	23	1
3633	Na h-Eileanan Siar			23	1
3634	Plaines Wilhems		MU-PW	110	1
3635	Brokopondo		SR-BR	121	1
3636	Los Santos		PA-7	107	1
3637	Al Mirfa			22	1
3638	Long Island			14	1
3639	Southern		ZM-07	117	1
3640	Mukono District			217	1
3641	Astrakhan			120	1
3642	Constantine		DZ-25	153	1
3643	Rukungiri District			217	1
3644	xxxxx			188	1
3645	Copperbelt		ZM-08	117	1
3646	Airai		PW-004	54	1
3647	Pwani		TZ-19	194	1
3648	Cankin			132	1
3649	Sorsogon		PH-SOR	38	1
3650	West Glamorgan			23	1
3651	Gaga'ifomauga 			39	1
3652	North Bank		GM-N	81	1
3653	Khammouane 			74	1
3654	Grande Comore			210	1
3655	Oromia			240	1
3656	Eastern Region			176	1
3657	Mangochi		MW-MG	228	1
3658	Mahajanga		MG-M	178	1
3659	Haiphong			124	1
3660	Kanungu District			217	1
3661	Lara		VE-K	92	1
3662	Mykolaiv			56	1
3663	Gharb-Chrarda-Béni Hssen		MA-02	47	1
3664	Atua		WS-AT	39	1
3665	Kaski			97	1
3666	Nitra			108	1
3667	Nairn			23	1
3668	Karditsa		GR-41	9	1
3669	San Vicente		SV-SV	188	1
3670	Southeastern			100	1
3671	Annaba		DZ-23	153	1
3672	Sotavento Islands			184	1
3673	Absheron			146	1
3674	Nizhniy Novgorod			120	1
3675	Oyo		NG-OY	25	1
3676	Greater Tripoli			70	1
3677	El Quiché			41	1
3678	Ko Racha Yai			101	1
3679	Sabaragamuwa			91	1
3680	Akrotiri			175	1
3681	Evrytania		GR-05	9	1
3682	Southern		BW-SO	102	1
3683	Valga County			85	1
3684	A'ana		WS-AA	39	1
3685	Pazardzik			24	1
3686	South Lebanon			99	1
3687	Náchod		CZ-523	151	1
3688	Tete		MZ-T	209	1
3689	Tonga			7	1
3690	Kursk Oblast			120	1
3691	Al-Sharjah			22	1
3692	Tren?ín			108	1
3693	Fingal			86	1
3694	Tanahu			97	1
3695	Svitavy		CZ-533	151	1
3696	North Keeling Island			158	1
3697	Distrina of Pristina			177	1
3698	A?r?			132	1
3699	Zlatibor			82	1
3700	Callao			30	1
3701	Lagunes			78	1
3702	Trebic		CZ-614	151	1
3703	Melnik		CZ-206	151	1
3704	Mari El Republic			120	1
3705	Nwoya			217	1
3706	Bauska			11	1
3707	Syunik			155	1
3708	Malleco			182	1
3709	Mbeya		TZ-14	194	1
3710	Pondicherry		IN-PY	27	1
3711	North Western			117	1
3712	Dubasari		MD-DU	106	1
3713	Itapua		PY-7	13	1
3714	Volgogradskaya Oblast			120	1
3715	Zaporizhia			56	1
3716	Southeast Sulawesi			18	1
3717	Buryatia			120	1
3718	Chimborazo		EC-H	96	1
3719	Costa Brava			28	1
3720	Canindeyu		PY-14	13	1
3721	Kurdistan			90	1
3722	Niamey Urban Community			212	1
3723	Imbabura		EC-I	96	1
3724	Yala province			91	1
3725	Sakhalin Oblast			120	1
3726	Veraguas		PA-9	107	1
3727	Pelagonia			100	1
3728	Tien Gang			124	1
3729	South		CM-SU	138	1
3730	Kotayk			155	1
3731	Boumerdes		DZ-35	153	1
3732	Ma'an			72	1
3733	Udmurt			120	1
3734	Samarkand			185	1
3735	East New Britain		PG-EBR	190	1
3736	Toliara		MG-U	178	1
3737	Enugu		NG-EN	25	1
3738	Sint Eustatius			149	1
3739	Comayagua		HN-CM	162	1
3740	Blida		DZ-09	153	1
3741	Kyivska			56	1
3742	Yalova		TR-77	132	1
3743	Alta Verapaz		GT-AV	41	1
3744	Western Area			235	1
3745	Ferghana			185	1
3746	East Azerbaijan			218	1
3747	Ma'an			72	1
3748	Voronezh			120	1
3749	Chinandega		NI-CI	139	1
3750	Lipetskaya			120	1
3751	Raska			82	1
3752	Vaisigano		WS-VS	39	1
3753	Harare		ZW-HA	239	1
3754	Hodonin		CZ-625	151	1
3755	Palena			182	1
3756	Bashkiria			120	1
3757	Llanique			182	1
3758	Pomoravlje			82	1
3759	Krasnoyarsk Krai			120	1
3760	Jinja		UG-204	217	1
3761	Uherské Hradišt?		CZ-722	151	1
3762	Khabarovskiy kray		RU-KHA	120	1
3763	Monseñor Nouel		DO-28	195	1
3764	Bruck an der Leitha			103	1
3765	Daugavpils		LV-DGV	11	1
3766	Khorezm			185	1
3767	Northwest			94	1
3768	Eastern		ZM-03	117	1
3769	South Kazakhstan			4	1
3770	Atyrau			4	1
3771	Blansko		CZ-621	151	1
3772	Orellana		EC-D	96	1
3773	Sao Tome Island			144	1
3774	Saratovskaya Oblast			120	1
3775	Sidi Bel Abbes		DZ-22	153	1
3776	Saint Philip		BB-10	167	1
3777	Ganja			146	1
3778	Rivnens'ka			56	1
3779	Jablanica			82	1
3780	Pastaza		EC-Y	96	1
3781	Pirot			82	1
3782	Saint Andrew		BB-02	167	1
3783	Colón		HN-CL	162	1
3784	Escuintla		GT-ES	41	1
3785	Bukhara			185	1
3786	Belgorodskaya oblast			120	1
3787	Moskovskaya Oblast			120	1
3788	Kalymnos			9	1
3789	Maharashtra 			160	1
3790	Jerash			72	1
3791	Prerov		CZ-714	151	1
3792	Kasese		UG-406	217	1
3793	Navoiy		UZ-NW	185	1
3794	Napo		EC-N	96	1
3795	Moka		MU-MO	110	1
3796	Khmelnytska			56	1
3797	Tipaza		DZ-42	153	1
3798	Zanzibar North			194	1
3799	Korneuburg			103	1
3800	Esteli		NI-ES	139	1
3801	North West			138	1
3802	North Lebanon			99	1
3803	Zakarpatskaya 			56	1
3804	Vardar			100	1
3805	Matabeleland South		ZW-MS	239	1
3806	Bekaa			99	1
3807	Altai Krai			120	1
3808	Edo		NG-ED	25	1
3809	xxxxxxxxxxxxx			52	1
3810	Mesaieed			140	1
3811	Leningradskaya oblast			120	1
3812	Barinas		VE-E	92	1
3813	Pamplemousses		MU-PA	110	1
3814	Togo			232	1
3815	Ubon  Ratchathani			101	1
3816	Poltavskaya			56	1
3817	Aden			88	1
3818	Ivanovo Oblast			120	1
3819	Bruntal		CZ-801	151	1
3820	Chuy			37	1
3821	Adygea			120	1
3822	Urfahr-Umgebung			103	1
3823	Aruba			149	1
3824	Primorsky Krai			120	1
3825	Buikwe			217	1
3826	Südoststeiermark			103	1
3827	Grevena		GR-51	9	1
3828	Kostroma Oblast			120	1
3829	Tamakautoga			183	1
3830	Murtal			103	1
3831	Delta		NG-DE	25	1
3832	Gaafu Atoll			5	1
3833	Addu Atoll			5	1
3834	Baa Atoll			5	1
3835	Laamu Atoll			5	1
3836	Lhaviyani Atoll			5	1
3837	Dhaalu Atoll			5	1
3838	Haa Alif Atoll			5	1
3839	San blas			107	1
3840	Haa Dhaalu Atoll			5	1
3841	Kaafu Atoll			5	1
3842	Telangana			27	1
3843	Noonu Atoll			5	1
3844	Darien		PA-5	107	1
3845	Ari Atoll			5	1
3846	Herrera		PA-6	107	1
3847	Shaviyani Atoll			5	1
3848	Meemu Atoll			5	1
3849	Obwalden (de)		CH-OW	57	1
3850	Appenzell Innerrhoden (de)		CH-AI	57	1
3851	Jura (fr)		CH-JU	57	1
3852	Glarus (de)		CH-GL	57	1
3853	Thurgau (de)		CH-TG	57	1
3854	Uri (de)		CH-UR	57	1
3855	Orange Walk		BZ-OW	165	1
